<svg width="60" height="60" viewBox="0 0 60 60" fill="none" xmlns="http://www.w3.org/2000/svg">
<path d="M46.5517 16.0345L42.4138 5.6897H17.5862L13.4483 16.0345H3.93C1.75966 16.0345 0 17.7942 0 19.9645V50.3452C0 52.5352 1.77517 54.3104 3.96517 54.3104H56.0338C58.2238 54.3104 59.999 52.5352 59.999 50.3452V19.9645C59.999 17.7942 58.2393 16.0345 56.069 16.0345H46.5517Z" fill="#324A5E"/>
<path d="M29.9983 50.1724C39.7109 50.1724 47.5845 42.2988 47.5845 32.5862C47.5845 22.8736 39.7109 15 29.9983 15C20.2857 15 12.4121 22.8736 12.4121 32.5862C12.4121 42.2988 20.2857 50.1724 29.9983 50.1724Z" fill="#424A60" stroke="#2B313D" stroke-width="2" stroke-miterlimit="10" stroke-linecap="round"/>
<path d="M29.9985 43.9655C36.2831 43.9655 41.3778 38.8708 41.3778 32.5862C41.3778 26.3016 36.2831 21.2069 29.9985 21.2069C23.7138 21.2069 18.6191 26.3016 18.6191 32.5862C18.6191 38.8708 23.7138 43.9655 29.9985 43.9655Z" fill="#7383BF"/>
<path d="M10.345 10.8621H6.20703V16.0345H10.345V10.8621Z" fill="#38454F"/>
<path d="M52.7577 26.3793C54.4717 26.3793 55.8612 24.9898 55.8612 23.2758C55.8612 21.5618 54.4717 20.1724 52.7577 20.1724C51.0438 20.1724 49.6543 21.5618 49.6543 23.2758C49.6543 24.9898 51.0438 26.3793 52.7577 26.3793Z" fill="#EE5B5B"/>
<path d="M33.1035 32.5862C33.1035 36.3052 34.5704 39.5979 36.8277 41.6742C39.5866 39.5979 41.3794 36.3052 41.3794 32.5862C41.3794 28.8673 39.5866 25.5745 36.8277 23.4983C34.5704 25.5745 33.1035 28.8673 33.1035 32.5862Z" fill="#879AD8"/>
<path d="M18.6191 32.5862C18.6191 36.3052 20.4119 39.5979 23.1709 41.6742C25.4281 39.5979 26.895 36.3052 26.895 32.5862C26.895 28.8673 25.4281 25.5745 23.1709 23.4983C20.4119 25.5745 18.6191 28.8673 18.6191 32.5862Z" fill="#879AD8"/>
<path d="M30.0017 45C23.1565 45 17.5879 39.4313 17.5879 32.5862C17.5879 25.741 23.1565 20.1724 30.0017 20.1724C36.8469 20.1724 42.4155 25.741 42.4155 32.5862C42.4155 39.4313 36.8469 45 30.0017 45ZM30.0017 22.2413C24.2975 22.2413 19.6569 26.882 19.6569 32.5862C19.6569 38.2903 24.2975 42.931 30.0017 42.931C35.7058 42.931 40.3465 38.2903 40.3465 32.5862C40.3465 26.882 35.7058 22.2413 30.0017 22.2413Z" fill="#556080"/>
<path d="M28.9655 32.5862C30.1081 32.5862 31.0344 31.6599 31.0344 30.5172C31.0344 29.3745 30.1081 28.4482 28.9655 28.4482C27.8228 28.4482 26.8965 29.3745 26.8965 30.5172C26.8965 31.6599 27.8228 32.5862 28.9655 32.5862Z" fill="#EE5B5B"/>
<path d="M25.8619 30.5172C27.0046 30.5172 27.9309 29.5909 27.9309 28.4482C27.9309 27.3056 27.0046 26.3793 25.8619 26.3793C24.7193 26.3793 23.793 27.3056 23.793 28.4482C23.793 29.5909 24.7193 30.5172 25.8619 30.5172Z" fill="#00D7A3"/>
</svg>
