<svg width="70" height="70" viewBox="0 0 70 70" fill="none" xmlns="http://www.w3.org/2000/svg">
<g clip-path="url(#clip0)">
<path d="M5.8185 5.68535L5.82011 5.68373C13.3744 -1.87114 25.6232 -1.87114 33.1781 5.68373L64.4493 36.955C72.0042 44.5099 72.0042 56.7586 64.4493 64.313L64.4477 64.3146C56.8934 71.8694 44.6447 71.8694 37.0898 64.3146L5.8185 33.0433C-1.73637 25.4884 -1.73637 13.2397 5.8185 5.68535Z" fill="#708299"/>
<path d="M64.4565 36.9556L33.1766 5.67566C32.7842 5.28324 32.3719 4.92367 31.9553 4.57324L4.70605 31.823C5.05648 32.2396 5.41552 32.6519 5.80847 33.0444L37.0884 64.3243C37.4808 64.7167 37.8931 65.0762 38.3097 65.4267L65.559 38.1769C65.1999 37.7603 64.8403 37.348 64.4565 36.9556Z" fill="#68788E"/>
<path d="M5.8185 36.9567L37.0898 5.68544C44.6447 -1.86943 56.8934 -1.86943 64.4477 5.68544L64.4493 5.68705C72.0042 13.2414 72.0042 25.4901 64.4493 33.045L33.1781 64.3163C25.6232 71.8712 13.3744 71.8712 5.82011 64.3163L5.8185 64.3147C-1.73637 56.7603 -1.73637 44.5116 5.8185 36.9567Z" fill="#92C5FF"/>
<path d="M7.77539 34.9999L35.1349 7.64038L62.4945 34.9999L35.1349 62.3595L7.77539 34.9999Z" fill="#78BCFF"/>
<path d="M32.0137 28.7655L35.1314 25.6472L38.2497 28.7655L35.1314 31.8833L32.0137 28.7655Z" fill="white"/>
<path d="M25.7783 34.9994L28.8966 31.8811L32.0144 34.9994L28.8966 38.1171L25.7783 34.9994Z" fill="white"/>
<path d="M38.25 35.0003L41.3678 31.8826L44.4861 35.0003L41.3678 38.1186L38.25 35.0003Z" fill="white"/>
<path d="M32.0146 41.2345L35.1329 38.1167L38.2507 41.2345L35.1329 44.3528L32.0146 41.2345Z" fill="white"/>
</g>
<defs>
<clipPath id="clip0">
<rect width="70" height="70" fill="white"/>
</clipPath>
</defs>
</svg>
