<svg width="50" height="50" viewBox="0 0 50 50" fill="none" xmlns="http://www.w3.org/2000/svg">
<g clip-path="url(#clip0)">
<path d="M26.3085 9.73633H9.1924C8.0906 9.73633 7.19727 10.6292 7.19727 11.731C7.19727 12.8328 8.0906 13.7262 9.1924 13.7262H24.6558L26.2848 15.3552V19.7894H30.2742V13.7025L26.3085 9.73633Z" fill="#5D5360"/>
<path d="M26.3081 9.73633H24.7773L28.7435 13.7025V19.7894H30.2738V13.7025L26.3081 9.73633Z" fill="#4C434F"/>
<path d="M33.5586 22.7471H38.3236V32.0674H33.5586V22.7471Z" fill="#5D5360"/>
<path d="M36.5469 22.7471H38.3231V32.0674H36.5469V22.7471Z" fill="#4C434F"/>
<path d="M46.0527 16.457H49.1472V38.3556H46.0527V16.457Z" fill="#5D5360"/>
<path d="M47.7852 16.457H49.1462V38.3556H47.7852V16.457Z" fill="#4C434F"/>
<path d="M38.3242 32.0665L46.053 38.3556V16.457L38.3242 22.7466V32.0665Z" fill="#857E87"/>
<path d="M44.2754 17.9029V36.9102L46.0517 38.3556V16.457L44.2754 17.9029Z" fill="#736B75"/>
<path d="M0.853516 19.7891V36.5082L5.20037 40.3579H29.2127L33.5595 36.5082V19.7891H0.853516Z" fill="#324A5E"/>
<path d="M31.5007 19.7891V36.5082L27.1543 40.3579H29.2118L33.5587 36.5082V19.7891H31.5007Z" fill="#736B75"/>
<path d="M12.6523 23.5078H29.4127V32.0671H12.6523V23.5078Z" fill="#00D7A3"/>
<path d="M27.5273 23.5078H29.4143V32.0671H27.5273V23.5078Z" fill="#66D4DD"/>
<path d="M7.77915 25.3429C7.77915 26.1443 7.12964 26.7942 6.32785 26.7942C5.52646 26.7942 4.87695 26.1443 4.87695 25.3429C4.87695 24.5415 5.52646 23.8916 6.32785 23.8916C7.12964 23.8916 7.77915 24.5415 7.77915 25.3429Z" fill="#EE5B5B"/>
<path d="M6.32714 23.891C6.15613 23.8923 5.98637 23.9243 5.82617 23.9851C6.39663 24.1931 6.7761 24.7353 6.7761 25.3423C6.7761 25.9494 6.39663 26.4916 5.82617 26.6992C6.36916 26.8985 6.97873 26.7554 7.37651 26.3355C7.7747 25.9157 7.88455 25.2995 7.65654 24.7677C7.4281 24.2364 6.90592 23.8915 6.32714 23.8906V23.891Z" fill="#F2754E"/>
<path d="M7.77915 30.6154C7.77915 31.4168 7.12964 32.0667 6.32785 32.0667C5.52646 32.0667 4.87695 31.4168 4.87695 30.6154C4.87695 29.814 5.52646 29.1641 6.32785 29.1641C7.12964 29.1641 7.77915 29.814 7.77915 30.6154Z" fill="#EE5B5B"/>
<path d="M6.32714 29.1645C6.15613 29.1657 5.98637 29.1978 5.82617 29.2585C6.39663 29.4666 6.7761 30.0087 6.7761 30.6158C6.7761 31.2229 6.39663 31.765 5.82617 31.9727C6.36916 32.172 6.97873 32.0288 7.37651 31.609C7.7747 31.1892 7.88455 30.5729 7.65654 30.0416C7.4281 29.5098 6.90592 29.1649 6.32714 29.1641V29.1645Z" fill="#F2754E"/>
<path d="M18.7367 20.6408C19.2073 20.6408 19.5888 20.2593 19.5888 19.7887C19.5888 19.3181 19.2073 18.9365 18.7367 18.9365H16.1803C15.7097 18.9365 15.3281 19.3181 15.3281 19.7887C15.3281 20.2593 15.7097 20.6408 16.1803 20.6408H18.7367Z" fill="#191210"/>
<path d="M49.1473 15.6048H46.0524C46.0308 15.6048 46.01 15.6098 45.9888 15.6115C45.9679 15.6132 45.9463 15.6148 45.9222 15.6181C45.856 15.6277 45.7915 15.6448 45.7295 15.6693L45.7183 15.6731C45.6542 15.7014 45.5935 15.738 45.5381 15.7812C45.5306 15.7871 45.5215 15.79 45.5144 15.7958L42.549 18.2087C42.2007 18.5104 42.1549 19.0338 42.4458 19.3912C42.7366 19.7482 43.2588 19.8098 43.6245 19.5294L45.2011 18.2474V36.5635L39.1758 31.6612V23.1514L41.3856 21.3535C41.6357 21.1658 41.7626 20.8567 41.7172 20.5475C41.6714 20.2388 41.4605 19.9791 41.1671 19.8718C40.8738 19.7644 40.5451 19.826 40.3108 20.0328L38.0211 21.894H34.4107V19.789C34.4107 19.3184 34.0292 18.9368 33.5586 18.9368H31.127V13.7021C31.127 13.4761 31.0371 13.2594 30.8773 13.0996L26.9108 9.13344C26.751 8.97366 26.5342 8.88379 26.3083 8.88379H22.6139C22.1433 8.88379 21.7617 9.26534 21.7617 9.73593C21.7617 10.2065 22.1433 10.5881 22.6139 10.5881H25.9571L29.4227 14.0541V18.9368H27.1371V15.3548C27.1367 15.1288 27.0473 14.912 26.8875 14.7523L25.2585 13.1237C25.0987 12.9635 24.882 12.8741 24.656 12.8736H9.19259C8.56139 12.8736 8.0496 12.3623 8.0496 11.7311C8.0496 11.0999 8.56139 10.5885 9.19259 10.5885H19.0522C19.5228 10.5885 19.9043 10.2069 19.9043 9.73635C19.9043 9.26576 19.5228 8.88421 19.0522 8.88421H9.19259C7.6202 8.88421 6.34531 10.1587 6.34531 11.7311C6.34531 13.3035 7.6202 14.5779 9.19259 14.5779H24.3028L25.4324 15.7076V18.9368H21.2994C20.8289 18.9368 20.4473 19.3184 20.4473 19.789C20.4473 20.2596 20.8289 20.6411 21.2994 20.6411H32.7064V36.1245L28.8889 39.5061H5.5223L1.70429 36.1245V20.6411H13.7429C14.2135 20.6411 14.5951 20.2596 14.5951 19.789C14.5951 19.3184 14.2135 18.9368 13.7429 18.9368H0.852146C0.381552 18.9368 1.23367e-06 19.3184 1.23367e-06 19.789V36.5082C-0.000414852 36.7524 0.104439 36.9854 0.287517 37.1473L4.63354 40.9969C4.78957 41.1342 4.99054 41.2099 5.19858 41.2099H29.2122C29.4202 41.2099 29.6212 41.1342 29.7772 40.9969L34.1232 37.1473C34.3063 36.985 34.4107 36.7524 34.4103 36.5082V32.919H38.0207L45.5148 39.0172C45.5261 39.0267 45.5394 39.0334 45.5514 39.0417C45.5635 39.0505 45.586 39.0663 45.6039 39.0771C45.6305 39.0929 45.658 39.107 45.6863 39.1199C45.7058 39.1291 45.7245 39.1382 45.7445 39.1457C45.7757 39.1578 45.8073 39.1678 45.8398 39.1757C45.8581 39.1803 45.876 39.1865 45.8947 39.1898C45.9467 39.1998 46 39.2052 46.0528 39.2057H49.1477C49.6187 39.2057 49.9998 38.8241 49.9998 38.3535V16.457C49.9998 15.9864 49.6183 15.6048 49.1473 15.6048ZM34.4107 23.5983H37.4719V31.2147H34.4107V23.5983ZM48.2951 37.5034H46.9046V17.3091H48.2951V37.5034Z" fill="#191210"/>
<path d="M11.8008 23.5074V24.8763C11.8008 25.3469 12.1823 25.7285 12.6529 25.7285C13.1235 25.7285 13.5051 25.3469 13.5051 24.8763V24.3596H28.5607V31.2146H13.5051V27.2326C13.5051 26.762 13.1235 26.3805 12.6529 26.3805C12.1823 26.3805 11.8008 26.762 11.8008 27.2326V32.0667C11.8008 32.5373 12.1823 32.9189 12.6529 32.9189H29.4129C29.8835 32.9189 30.265 32.5373 30.265 32.0667V23.5074C30.265 23.0368 29.8835 22.6553 29.4129 22.6553H12.6529C12.1823 22.6553 11.8008 23.0368 11.8008 23.5074Z" fill="#191210"/>
<path d="M6.32647 27.646C7.59887 27.646 8.62993 26.6145 8.62993 25.3425C8.62993 24.0705 7.59887 23.0391 6.32647 23.0391C5.0545 23.0391 4.02344 24.0705 4.02344 25.3425C4.02469 26.6141 5.05533 27.6443 6.32647 27.646ZM6.32647 24.7429C6.65768 24.7429 6.92564 25.0113 6.92564 25.3421C6.92564 25.6729 6.65768 25.9413 6.32647 25.9413C5.99569 25.9413 5.72773 25.6729 5.72773 25.3421C5.72814 25.0113 5.9961 24.7433 6.32647 24.7429Z" fill="#191210"/>
<path d="M6.32647 32.9194C7.59887 32.9194 8.62993 31.8879 8.62993 30.616C8.62993 29.344 7.59887 28.3125 6.32647 28.3125C5.0545 28.3125 4.02344 29.344 4.02344 30.616C4.02469 31.8875 5.05533 32.9177 6.32647 32.9194ZM6.32647 30.0168C6.65768 30.0168 6.92564 30.2852 6.92564 30.616C6.92564 30.9467 6.65768 31.2151 6.32647 31.2151C5.99569 31.2151 5.72773 30.9467 5.72773 30.616C5.72773 30.2852 5.99569 30.0168 6.32647 30.0164V30.0168Z" fill="#191210"/>
<path d="M4.87558 36.8947H15.3909C15.8615 36.8947 16.2431 36.5132 16.2431 36.0426C16.2431 35.5716 15.8615 35.1904 15.3909 35.1904H4.87558C4.40499 35.1904 4.02344 35.5716 4.02344 36.0426C4.02344 36.5132 4.40499 36.8947 4.87558 36.8947Z" fill="#191210"/>
<path d="M29.4126 35.1904H27.1861C26.7155 35.1904 26.334 35.5716 26.334 36.0426C26.334 36.5132 26.7155 36.8947 27.1861 36.8947H29.413C29.8836 36.8947 30.2652 36.5132 30.2652 36.0426C30.2652 35.5716 29.8836 35.1904 29.413 35.1904H29.4126Z" fill="#191210"/>
<path d="M22.0787 35.1904C21.6081 35.1904 21.2266 35.5716 21.2266 36.0426C21.2266 36.5132 21.6081 36.8947 22.0787 36.8947H24.3056C24.7762 36.8947 25.1577 36.5132 25.1577 36.0426C25.1577 35.5716 24.7762 35.1904 24.3056 35.1904H22.0787Z" fill="#191210"/>
</g>
<defs>
<clipPath id="clip0">
<rect width="50" height="50" fill="white"/>
</clipPath>
</defs>
</svg>
