<svg width="70" height="70" viewBox="0 0 70 70" fill="none" xmlns="http://www.w3.org/2000/svg">
<g clip-path="url(#clip0)">
<path d="M69.8636 35.1367C69.8636 54.4391 54.386 70.0171 35.0841 70.1361C29.7702 70.1687 24.7292 69.0168 20.209 66.9291C19.4741 66.59 19.0041 65.8541 19.0041 65.045C19.0041 63.4652 17.7229 62.184 16.1432 62.184H12.6499C4.81262 55.7401 -0.175478 45.9561 -0.136492 35.009C-0.0670644 15.5875 15.9734 -0.147495 35.3928 0.140362C54.479 0.423413 69.8636 15.9832 69.8636 35.1367Z" fill="#2ABBC7"/>
<path d="M63.296 55.5479C61.0749 58.6369 58.3635 61.3483 55.2745 63.5695C55.2157 63.5711 55.157 63.5743 55.0977 63.5743C55.0977 63.5743 22.5388 63.5716 15.7018 63.57C14.8628 63.57 14.0489 63.288 13.3867 62.7726C10.7372 60.7106 8.39218 58.2764 6.43005 55.5479C6.42899 55.4892 6.42578 55.4304 6.42578 55.3711V14.9024C6.42578 14.8431 6.42899 14.7843 6.43005 14.725C8.65173 11.6366 11.3631 8.92464 14.4516 6.70349C14.5109 6.70242 14.5696 6.69922 14.6289 6.69922H55.0977C55.157 6.69922 55.2157 6.70242 55.2745 6.70349C58.3635 8.92517 61.0749 11.6366 63.296 14.725C63.2976 14.7843 63.3008 14.8431 63.3008 14.9024V55.3711C63.3008 55.4304 63.2976 55.4892 63.296 55.5479Z" fill="#495959"/>
<path d="M63.296 14.725C63.2031 10.3356 59.6639 6.79695 55.2745 6.70349C55.2157 6.70242 55.157 6.69922 55.0977 6.69922H20.3711C18.2915 6.69922 16.394 7.47467 14.9483 8.75H32.1289C32.8841 8.75 33.4961 9.36203 33.4961 10.1172V31.0352C33.4961 32.5455 32.272 33.7696 30.7617 33.7696H12.168V36.5039H30.7617C32.272 36.5039 33.4961 37.728 33.4961 39.2383V60.1563C33.4961 60.9114 32.8841 61.5235 32.1289 61.5235H14.9483C16.394 62.7988 18.2915 63.5743 20.3711 63.5743H55.0977C55.157 63.5743 55.2157 63.5711 55.2745 63.5695C58.3635 61.3483 61.0749 58.6369 63.296 55.5479C63.2976 55.4892 63.3008 55.4304 63.3008 55.3711V14.9024C63.3008 14.8431 63.2976 14.7843 63.296 14.725ZM61.25 55.3711C61.25 58.7688 58.4954 61.5235 55.0977 61.5235H37.5977C36.8425 61.5235 36.2305 60.9114 36.2305 60.1563V39.2383C36.2305 37.728 37.4545 36.5039 38.9649 36.5039H59.8829C60.638 36.5039 61.25 37.116 61.25 37.8711V55.3711ZM61.25 32.4024C61.25 33.1575 60.638 33.7696 59.8829 33.7696H38.9649C37.4545 33.7696 36.2305 32.5455 36.2305 31.0352V10.1172C36.2305 9.36203 36.8425 8.75 37.5977 8.75H55.0977C58.4954 8.75 61.25 11.5041 61.25 14.9024V32.4024Z" fill="#607882"/>
<path d="M20.5078 31.0304C20.5078 31.3225 20.2782 31.5666 19.9855 31.5767C19.8867 31.5799 19.7874 31.582 19.6875 31.582C14.0244 31.582 9.43359 26.9913 9.43359 21.3281C9.43359 15.665 14.0244 11.0742 19.6875 11.0742C19.7874 11.0742 19.8867 11.0758 19.9855 11.0796C20.2782 11.0892 20.5078 11.3332 20.5078 11.6259V31.0304Z" fill="#E84444"/>
<path d="M19.6875 27.6172C19.9641 27.6172 20.2371 27.6028 20.5078 27.5814V31.0304C20.5078 31.3225 20.2782 31.5666 19.9855 31.5767C19.8867 31.5799 19.7874 31.582 19.6875 31.582C14.0244 31.582 9.43359 26.9913 9.43359 21.3281C9.43359 20.6499 9.50089 19.9871 9.62692 19.3457C10.5503 24.0598 14.7026 27.6172 19.6875 27.6172Z" fill="#D73131"/>
<path d="M20.5078 31.0336C20.5078 31.331 20.2702 31.5767 19.9732 31.5815C19.9487 31.5815 19.9246 31.582 19.9001 31.582C15.705 31.582 12.3047 26.9913 12.3047 21.3281C12.3047 15.665 15.705 11.0742 19.9001 11.0742C19.9246 11.0742 19.9487 11.0742 19.9732 11.0748C20.2702 11.0796 20.5078 11.3252 20.5078 11.6222V31.0336Z" fill="#FD6C55"/>
<path d="M29.9414 31.0304C29.9414 31.3225 29.7118 31.5666 29.4191 31.5767C29.3203 31.5799 29.221 31.582 29.1211 31.582C23.4579 31.582 18.8672 26.9913 18.8672 21.3281C18.8672 15.665 23.4579 11.0742 29.1211 11.0742C29.221 11.0742 29.3203 11.0758 29.4191 11.0796C29.7118 11.0892 29.9414 11.3332 29.9414 11.6259V31.0304Z" fill="#E84444"/>
<path d="M29.1211 27.6172C29.3977 27.6172 29.6706 27.6028 29.9414 27.5814V31.0304C29.9414 31.3225 29.7118 31.5666 29.4191 31.5767C29.3203 31.5799 29.221 31.582 29.1211 31.582C23.4579 31.582 18.8672 26.9913 18.8672 21.3281C18.8672 20.6499 18.9345 19.9871 19.0605 19.3457C19.9839 24.0598 24.1362 27.6172 29.1211 27.6172Z" fill="#D73131"/>
<path d="M29.9414 31.0336C29.9414 31.331 29.7038 31.5767 29.4068 31.5815C29.3823 31.5815 29.3582 31.582 29.3337 31.582C25.1386 31.582 21.7383 26.9913 21.7383 21.3281C21.7383 15.665 25.1386 11.0742 29.3337 11.0742C29.3582 11.0742 29.3823 11.0742 29.4068 11.0748C29.7038 11.0796 29.9414 11.3252 29.9414 11.6222V31.0336Z" fill="#FD6C55"/>
<path d="M16.0142 22.4796C15.5282 22.7081 14.9509 22.6077 14.5711 22.228C14.0739 21.7308 14.0739 20.9249 14.5711 20.4282C14.9509 20.048 15.5282 19.9476 16.0142 20.1767L18.1942 21.2042C18.2983 21.2539 18.2983 21.4024 18.1942 21.452L16.0142 22.4796ZM18.8671 24.8438L16.599 25.6588C16.0932 25.8404 15.7562 26.3194 15.7562 26.8567C15.7562 27.5601 16.3261 28.1299 17.0294 28.1299C17.5661 28.1299 18.0457 27.7929 18.2273 27.2871L19.0423 25.019C19.0813 24.9101 18.9755 24.8048 18.8671 24.8438ZM18.2273 15.3691C18.0457 14.8634 17.5661 14.5264 17.0294 14.5264C16.3261 14.5264 15.7562 15.0962 15.7562 15.7996C15.7562 16.3363 16.0932 16.8159 16.599 16.9975L18.8671 17.8124C18.9755 17.8514 19.0807 17.7462 19.0417 17.6373L18.2273 15.3691ZM27.6278 21.452C27.7319 21.4024 27.7319 21.2539 27.6278 21.2042L25.4478 20.1767C24.9618 19.9476 24.3845 20.0485 24.0047 20.4282C23.5075 20.9249 23.5075 21.7313 24.0047 22.228C24.3845 22.6077 24.9618 22.7081 25.4478 22.4796L27.6278 21.452ZM28.3007 24.8438L26.0326 25.6588C25.5268 25.8404 25.1898 26.3194 25.1898 26.8567C25.1898 27.5601 25.7597 28.1299 26.463 28.1299C26.9997 28.1299 27.4793 27.7929 27.6609 27.2871L28.4759 25.019C28.5149 24.9101 28.4091 24.8048 28.3007 24.8438ZM26.0326 16.9975L28.3007 17.8119C28.4097 17.8509 28.5149 17.7457 28.4753 17.6373L27.6609 15.3691C27.4793 14.8634 26.9997 14.5264 26.463 14.5264C25.7597 14.5264 25.1898 15.0962 25.1898 15.7996C25.1898 16.3363 25.5268 16.8159 26.0326 16.9975Z" fill="#FC544D"/>
<path d="M31.8822 51.8004C31.8822 53.6477 30.3842 55.1457 28.5368 55.1457H21.8456C19.9978 55.1457 18.4998 53.6477 18.4998 51.8004C18.4998 50.9384 18.8261 50.1523 19.3617 49.5595C17.6324 49.4297 16.2695 47.9867 16.2695 46.2243C16.2695 45.3671 16.5921 44.5858 17.1219 43.9941C16.5921 43.4018 16.2695 42.6205 16.2695 41.7633C16.2695 39.916 17.7676 38.418 19.6149 38.418H28.5368C30.3847 38.418 31.8822 39.916 31.8822 41.7633C31.8822 43.6111 30.3847 45.1092 28.5368 45.1092H27.9793C27.0554 45.1092 26.3061 45.8579 26.3061 46.7818C26.3061 47.6123 26.9117 48.2991 27.7048 48.4305C27.6978 48.4385 27.6914 48.4465 27.684 48.4545H28.5368C30.3842 48.4545 31.8822 49.9525 31.8822 51.8004Z" fill="#0CC33C"/>
<path d="M23.7428 55.6568C23.7428 57.3701 22.3537 58.7592 20.641 58.7592H14.4368C12.7236 58.7592 11.3345 57.3701 11.3345 55.6568C11.3345 54.8579 11.6373 54.1294 12.1334 53.5793C10.5302 53.4586 9.2666 52.1208 9.2666 50.4866C9.2666 49.6924 9.56567 48.9677 10.057 48.4187C9.56567 47.8702 9.2666 47.1455 9.2666 46.3508C9.2666 44.6376 10.6557 43.249 12.3684 43.249H20.641C22.3537 43.249 23.7428 44.6376 23.7428 46.3508C23.7428 48.0641 22.3537 49.4526 20.641 49.4526H20.124C19.2674 49.4526 18.5726 50.1475 18.5726 51.0041C18.5726 51.7737 19.1344 52.4108 19.8698 52.532C19.8628 52.5395 19.857 52.5475 19.8506 52.555H20.641C22.3537 52.555 23.7428 53.9435 23.7428 55.6568Z" fill="#0CA12D"/>
<path d="M26.6441 50.8257C26.6441 52.539 25.2551 53.9281 23.5418 53.9281H17.3382C15.6249 53.9281 14.2358 52.539 14.2358 50.8257C14.2358 50.0268 14.5381 49.2983 15.0348 48.7483C13.4315 48.6281 12.168 47.2897 12.168 45.6561C12.168 44.8614 12.467 44.1367 12.9584 43.5877C12.467 43.0392 12.168 42.3145 12.168 41.5198C12.168 39.8065 13.5565 38.418 15.2698 38.418H23.5418C25.2551 38.418 26.6441 39.8065 26.6441 41.5198C26.6441 43.233 25.2551 44.6221 23.5418 44.6221H23.0248C22.1687 44.6221 21.4739 45.3164 21.4739 46.173C21.4739 46.9426 22.0352 47.5797 22.7706 47.7015C22.7642 47.709 22.7583 47.7165 22.7514 47.7239H23.5423C25.2551 47.7239 26.6441 49.1125 26.6441 50.8257Z" fill="#49CB5C"/>
<path d="M24.4727 33.5292V46.1736C24.4727 49.1483 22.7749 51.7251 20.2963 52.9924V66.9687C17.8055 65.8269 15.4717 64.402 13.3365 62.7342V52.9924C10.8579 51.7251 9.16016 49.1483 9.16016 46.1736V33.5292C9.16016 33.2088 9.41971 32.9492 9.74014 32.9492C11.47 32.9492 12.8724 34.3517 12.8724 36.0815V44.6654C12.8724 45.2422 13.3397 45.7095 13.9159 45.7095C14.4927 45.7095 14.96 45.2422 14.96 44.6654V35.9357C14.96 34.7997 15.5454 33.7434 16.5088 33.1415C16.6973 33.0235 16.935 33.0235 17.1235 33.1415C18.0869 33.7434 18.6723 34.7992 18.6723 35.9357V44.6654C18.6723 45.2422 19.1396 45.7095 19.7163 45.7095C20.2926 45.7095 20.7599 45.2422 20.7599 44.6654V36.0815C20.7599 34.3517 22.1623 32.9492 23.8921 32.9492C24.2131 32.9492 24.4727 33.2088 24.4727 33.5292Z" fill="#FFF2B4"/>
<path d="M17.0418 53.1361V65.2629C15.751 64.4982 14.513 63.6538 13.336 62.7342V52.9924C10.8579 51.7251 9.16016 49.1483 9.16016 46.1736V33.5292C9.16016 33.2088 9.41971 32.9492 9.74014 32.9492C11.4053 32.9492 12.7666 34.2491 12.866 35.8897V43.6213C12.866 43.6213 12.8681 44.2889 12.8724 44.3898C12.8724 44.3898 12.8879 44.8721 12.9167 44.9677C13.1421 46.9309 14.1109 48.6682 15.5341 49.8917C16.4826 50.7067 17.0418 51.8853 17.0418 53.1361Z" fill="#FFE899"/>
<path d="M50.8375 21.8408C50.6319 21.9156 50.4273 21.9866 50.2228 22.0555C55.0544 22.2254 58.6524 22.8758 58.6524 23.6524V24.1992C58.6524 25.0313 56.3297 26.273 52.9112 26.9656C56.4237 27.7128 58.7864 28.5924 58.7004 29.2285C58.6897 29.307 58.6411 29.6653 58.6273 29.7705C58.4654 30.9673 53.3347 32.366 47.3485 31.5569C41.3628 30.7484 36.7875 28.038 36.9493 26.8407C36.9632 26.7355 37.0118 26.3777 37.0225 26.2986C37.0609 26.0124 37.5923 25.8105 38.4901 25.6941C37.4075 25.175 36.7773 24.6318 36.7773 24.1992C36.7773 24.093 36.7773 23.7319 36.7773 23.6524C36.7773 23.2395 37.7958 22.8625 39.4733 22.5741C39.4605 22.5511 39.4466 22.5282 39.438 22.5047C39.4017 22.4048 39.2778 22.0657 39.2506 21.9909C38.9403 21.1396 43.2891 18.7721 48.964 16.7027C49.1776 16.6247 49.3891 16.5494 49.6001 16.4746C48.9875 16.5179 48.3579 16.543 47.7149 16.543C41.6741 16.543 36.7773 14.4698 36.7773 13.2617C36.7773 13.1554 36.7773 12.7944 36.7773 12.7148C36.7773 11.8085 41.6741 11.0742 47.7149 11.0742C53.7556 11.0742 58.6524 11.8085 58.6524 12.7148V13.2617C58.6524 13.5587 58.3554 13.9074 57.8198 14.2652C58.9659 14.1221 59.6884 14.1862 59.8022 14.4975C59.8294 14.5723 59.9528 14.9114 59.9891 15.0113C60.4035 16.1462 56.5129 19.7714 50.8375 21.8408Z" fill="#FC9302"/>
<path d="M36.7773 12.7148C36.7773 11.8085 41.6741 11.0742 47.7149 11.0742C53.7556 11.0742 58.6524 11.8085 58.6524 12.7148C58.6524 13.6206 53.7556 14.3555 47.7149 14.3555C41.6741 14.3555 36.7773 13.6206 36.7773 12.7148ZM48.0807 26.1379C42.095 25.3288 37.1437 25.4009 37.0225 26.2986C36.9007 27.1969 41.6554 28.5806 47.6417 29.3892C53.6279 30.1983 58.5787 30.1262 58.7004 29.2285C58.8217 28.3307 54.0669 26.947 48.0807 26.1379ZM58.6524 23.6524C58.6524 22.8758 55.0544 22.2253 50.2228 22.0555C44.903 23.8484 40.0554 23.6096 39.4733 22.5746C37.7958 22.8625 36.7773 23.2395 36.7773 23.6524C36.7773 24.5581 41.6741 25.293 47.7149 25.293C53.7556 25.293 58.6524 24.5581 58.6524 23.6524ZM59.8022 14.4975C59.4914 13.6462 54.6395 14.6337 48.964 16.7027C43.2891 18.7721 38.9397 21.1396 39.2506 21.9909C39.5609 22.8422 44.4133 21.8547 50.0882 19.7858C55.7636 17.7163 60.1125 15.3488 59.8022 14.4975Z" fill="#FDBF43"/>
<path d="M60.0195 42.5195C60.0195 40.2541 58.1835 38.418 55.918 38.418C54.1577 38.418 52.657 39.5267 52.0754 41.084C51.3267 40.285 50.2628 39.7852 49.082 39.7852C47.9012 39.7852 46.8374 40.285 46.0886 41.084C45.5071 39.5267 44.0064 38.418 42.2461 38.418C39.9806 38.418 38.1445 40.2541 38.1445 42.5195C38.1445 44.4112 39.4257 46.0032 41.1678 46.4769C40.982 46.9447 40.8789 47.4542 40.8789 47.9883C40.8789 49.0452 41.2789 50.0081 41.9353 50.7355C39.8151 50.8946 38.1445 52.6634 38.1445 54.8242C38.1445 57.0892 39.9806 58.9258 42.2461 58.9258C44.1377 58.9258 45.7298 57.6446 46.2035 55.9025C46.6713 56.0883 47.1808 56.1914 47.7149 56.1914C48.7718 56.1914 49.7352 55.7914 50.462 55.135C50.6212 57.2547 52.39 58.9258 54.5508 58.9258C56.8163 58.9258 58.6524 57.0892 58.6524 54.8242C58.6524 53.064 57.5431 51.5633 55.9863 50.9811C56.7853 50.2329 57.2852 49.1691 57.2852 47.9883C57.2852 47.4542 57.1821 46.9447 56.9962 46.4769C58.7383 46.0032 60.0195 44.4112 60.0195 42.5195ZM49.089 48.2249C49.0847 48.2233 49.0799 48.2211 49.0751 48.2195C49.0794 48.1432 49.082 48.0657 49.082 47.9883C49.082 48.0679 49.0847 48.1464 49.089 48.2249Z" fill="#FD7D43"/>
<path d="M47.0286 48.046C45.8585 48.243 44.8592 48.9373 44.2493 49.9023C43.4782 49.6075 42.9297 48.8631 42.9297 47.9883C42.9297 47.2977 43.272 46.6884 43.7954 46.3167C43.9903 46.2366 44.1778 46.1426 44.3567 46.0347C44.5532 45.9722 44.7631 45.9375 44.9805 45.9375C45.192 45.9375 45.396 45.9695 45.5877 46.0288C45.9263 46.58 46.3893 47.0451 46.9405 47.3837C46.9992 47.5744 47.0313 47.7779 47.0313 47.9883C47.0313 48.0075 47.0291 48.0267 47.0286 48.046ZM55.2344 47.9883C55.2344 47.2977 54.8921 46.6884 54.3687 46.3167C54.1737 46.2366 53.9863 46.1426 53.8074 46.0347C53.6109 45.9722 53.401 45.9375 53.1836 45.9375C52.9721 45.9375 52.7681 45.9695 52.5764 46.0288C52.2378 46.58 51.7748 47.0451 51.2236 47.3832C51.1649 47.5744 51.1328 47.7779 51.1328 47.9883C51.1328 49.121 52.0509 50.0391 53.1836 50.0391C54.3163 50.0391 55.2344 49.121 55.2344 47.9883ZM42.2461 52.7734C41.1134 52.7734 40.1953 53.6915 40.1953 54.8242C40.1953 55.957 41.1134 56.875 42.2461 56.875C43.3788 56.875 44.2969 55.957 44.2969 54.8242C44.2969 53.6915 43.3788 52.7734 42.2461 52.7734ZM55.918 40.4688C54.7852 40.4688 53.8672 41.3868 53.8672 42.5195C53.8672 43.6523 54.7852 44.5703 55.918 44.5703C57.0507 44.5703 57.9688 43.6523 57.9688 42.5195C57.9688 41.3868 57.0507 40.4688 55.918 40.4688ZM42.2461 44.5703C43.3788 44.5703 44.2969 43.6523 44.2969 42.5195C44.2969 41.3868 43.3788 40.4688 42.2461 40.4688C41.1134 40.4688 40.1953 41.3868 40.1953 42.5195C40.1953 43.6523 41.1134 44.5703 42.2461 44.5703ZM54.5508 52.7734C53.4181 52.7734 52.5 53.6915 52.5 54.8242C52.5 55.957 53.4181 56.875 54.5508 56.875C55.6835 56.875 56.6016 55.957 56.6016 54.8242C56.6016 53.6915 55.6835 52.7734 54.5508 52.7734ZM47.7149 50.0391C46.5821 50.0391 45.6641 50.9571 45.6641 52.0899C45.6641 53.2226 46.5821 54.1406 47.7149 54.1406C48.8476 54.1406 49.7656 53.2226 49.7656 52.0899C49.7656 50.9571 48.8476 50.0391 47.7149 50.0391ZM49.082 41.8359C47.9493 41.8359 47.0313 42.754 47.0313 43.8867C47.0313 45.0195 47.9493 45.9375 49.082 45.9375C50.2148 45.9375 51.1328 45.0195 51.1328 43.8867C51.1328 42.754 50.2148 41.8359 49.082 41.8359Z" fill="#FC5426"/>
</g>
<defs>
<clipPath id="clip0">
<rect width="70" height="70" fill="white"/>
</clipPath>
</defs>
</svg>
