<svg width="70" height="70" viewBox="0 0 70 70" fill="none" xmlns="http://www.w3.org/2000/svg">
<path d="M35 70C53.4994 70 68.4961 55.0033 68.4961 36.5039C68.4961 18.0045 53.4994 3.00781 35 3.00781C16.5006 3.00781 1.50391 18.0045 1.50391 36.5039C1.50391 55.0033 16.5006 70 35 70Z" fill="#1A2B63"/>
<path d="M37.3926 49.464V42.1338C37.1103 42.203 36.8154 42.2403 36.5117 42.2403H33.4883C33.1846 42.2403 32.8897 42.203 32.6074 42.1338V49.464H37.3926Z" fill="#FFAF10"/>
<path d="M34.7266 49.464V42.2403H33.4883C33.1846 42.2403 32.8897 42.203 32.6074 42.1338V49.464H34.7266Z" fill="#EF9614"/>
<path d="M35 38.9654C33.1676 38.9654 31.4127 38.6279 29.793 38.0137V38.6877C29.793 40.7285 31.4474 42.3829 33.4883 42.3829H36.5117C38.5527 42.3829 40.2071 40.7285 40.2071 38.6877V38.0137C38.5873 38.6279 36.8325 38.9654 35 38.9654Z" fill="#FFD00D"/>
<path d="M34.0284 38.9326C32.5466 38.8355 31.1241 38.5186 29.793 38.0137V38.6877C29.793 40.7285 31.4474 42.3829 33.4883 42.3829H36.5117C36.7167 42.3829 36.9175 42.3656 37.1133 42.3334C35.4373 42.0589 34.1413 40.6574 34.0284 38.9326Z" fill="#FFAF10"/>
<path d="M40.332 52.2266V49.9023C40.332 49.5264 40.0244 49.2188 39.6484 49.2188H30.3516C29.9756 49.2188 29.668 49.5264 29.668 49.9023V52.2266H40.332Z" fill="#EF8318"/>
<path d="M33.7695 52.2266V49.9023C33.7695 49.5264 34.0771 49.2188 34.4531 49.2188H30.3516C29.9756 49.2188 29.668 49.5264 29.668 49.9023V52.2266H33.7695Z" fill="#DB722C"/>
<path d="M47.9199 63.8477V52.6367C47.9199 52.2607 47.6123 51.9531 47.2363 51.9531H22.7637C22.3877 51.9531 22.0801 52.2607 22.0801 52.6367V63.8477H47.9199Z" fill="#A05F33"/>
<path d="M24.1992 63.8477V52.6367C24.1992 52.2607 24.5068 51.9531 24.8828 51.9531H22.7637C22.3877 51.9531 22.0801 52.2607 22.0801 52.6367V63.8477H24.1992Z" fill="#87502A"/>
<path d="M44.1632 60.8398C44.1632 61.2158 43.8556 61.5234 43.4797 61.5234H26.5205C26.1445 61.5234 25.8369 61.2158 25.8369 60.8398V55.0977C25.8369 54.7217 26.1445 54.4141 26.5205 54.4141H43.4797C43.8556 54.4141 44.1632 54.7217 44.1632 55.0977V60.8398Z" fill="#293D7C"/>
<path d="M28.5681 60.8398V55.0977C28.5681 54.7217 28.8758 54.4141 29.2517 54.4141H26.5205C26.1445 54.4141 25.8369 54.7217 25.8369 55.0977V60.8398C25.8369 61.2158 26.1445 61.5234 26.5205 61.5234H29.2517C28.8758 61.5234 28.5681 61.2158 28.5681 60.8398Z" fill="#1A2B63"/>
<path d="M50.791 63.7109H19.209C18.833 63.7109 18.5254 64.0186 18.5254 64.3945V65.6731C23.3901 68.4265 29.011 70 35 70C40.989 70 46.6099 68.4265 51.4746 65.673V64.3945C51.4746 64.0186 51.167 63.7109 50.791 63.7109Z" fill="#BF7E52"/>
<path d="M22.6953 64.3945C22.6953 64.0186 23.0029 63.7109 23.3789 63.7109H19.209C18.833 63.7109 18.5254 64.0186 18.5254 64.3945V65.6731C19.861 66.429 21.2538 67.0954 22.6953 67.6653V64.3945Z" fill="#AA6B3F"/>
<path d="M58.0041 3.49902H52.7055V4.64869C52.7055 4.95029 52.4603 5.19557 52.1587 5.19557H49.8644C49.7888 5.19557 49.7277 5.25682 49.7277 5.33229V6.91699H56.8945C56.6017 12.9057 53.8943 18.2703 49.7277 22.0561V24.2384C49.7277 25.0325 49.6635 25.8118 49.542 26.5721C56.0666 21.9834 60.3388 14.3985 60.3388 5.83377C60.3388 4.54629 59.2914 3.49902 58.0041 3.49902Z" fill="#FFAF10"/>
<path d="M20.2734 24.2384V22.0561C16.1069 18.2703 13.3992 12.9057 13.1066 6.91699H20.2734V5.33229C20.2734 5.25682 20.2121 5.19557 20.1367 5.19557H17.8423C17.5407 5.19557 17.2954 4.95029 17.2954 4.64869V3.49902H11.9969C10.7095 3.49902 9.66211 4.54643 9.66211 5.83377C9.66211 14.3987 13.9344 21.9835 20.4589 26.5722C20.3374 25.8118 20.2734 25.0325 20.2734 24.2384Z" fill="#FFD00D"/>
<path d="M20.1367 5.19531V24.2382C20.1367 32.4472 26.7915 39.102 35.0005 39.102C43.2095 39.102 49.8644 32.4472 49.8644 24.2382V5.19531H20.1367Z" fill="#EF8318"/>
<path d="M23.106 24.2383V5.05908H20.1367V24.2383C20.1367 32.4473 26.7915 39.1021 35.0005 39.1021C35.4983 39.1021 35.9896 39.0757 36.4746 39.0275C28.9677 38.2776 23.106 31.9425 23.106 24.2383Z" fill="#DB722C"/>
<path d="M35 31.377C40.5876 31.377 45.1172 26.8473 45.1172 21.2598C45.1172 15.6722 40.5876 11.1426 35 11.1426C29.4124 11.1426 24.8828 15.6722 24.8828 21.2598C24.8828 26.8473 29.4124 31.377 35 31.377Z" fill="#DB722C"/>
<path d="M27.4805 21.2598C27.4805 16.1126 31.3251 11.8664 36.2988 11.2284C35.8734 11.1739 35.4405 11.1426 35 11.1426C29.4124 11.1426 24.8828 15.6722 24.8828 21.2598C24.8828 26.8473 29.4124 31.377 35 31.377C35.4405 31.377 35.8734 31.3456 36.2988 31.2911C31.3251 30.6533 27.4805 26.407 27.4805 21.2598Z" fill="#C95E23"/>
<path d="M38.521 27.5759C38.3538 27.576 38.1828 27.5306 38.0128 27.4412L35.2584 25.9932C35.2168 25.9714 35.1241 25.9458 34.9998 25.9458C34.8754 25.9458 34.7827 25.9714 34.7409 25.9932L31.9867 27.4412C31.8166 27.5306 31.6456 27.5759 31.4785 27.5759C31.2247 27.5759 30.9976 27.4724 30.8393 27.2846C30.6636 27.0763 30.5969 26.7873 30.6512 26.4708L31.1773 23.4039C31.2004 23.2693 31.1152 23.0072 31.0175 22.9117L28.7892 20.7397C28.4991 20.4568 28.394 20.1063 28.5008 19.7779C28.6075 19.4495 28.8986 19.2279 29.2995 19.1696L32.3786 18.7223C32.5137 18.7026 32.7368 18.5406 32.7973 18.4181L34.1743 15.6276C34.3537 15.2644 34.6545 15.0562 34.9998 15.0562C35.3452 15.0562 35.6461 15.2644 35.8252 15.6276L37.2024 18.4181C37.2628 18.5406 37.4858 18.7027 37.6209 18.7223L40.7002 19.1696C41.1009 19.2279 41.3921 19.4495 41.4987 19.7779C41.6055 20.1063 41.5005 20.4568 41.2105 20.7396L38.9822 22.9117C38.8843 23.007 38.7991 23.2693 38.8222 23.4039L39.3482 26.4708C39.4024 26.7873 39.3357 27.0763 39.1602 27.2846C39.0017 27.4724 38.7746 27.5759 38.521 27.5759Z" fill="#FFD00D"/>
<path d="M32.9081 26.1777L33.4781 22.8545C33.5031 22.7086 33.4109 22.4244 33.3049 22.3212L30.8903 19.9676C30.5938 19.6784 30.4783 19.3243 30.5629 18.9863L29.2995 19.1699C28.8986 19.2282 28.6075 19.4498 28.5008 19.7782C28.394 20.1066 28.4991 20.4571 28.7892 20.74L31.0175 22.9121C31.1152 23.0074 31.2004 23.2696 31.1773 23.4043L30.6512 26.4711C30.5971 26.7876 30.6638 27.0767 30.8393 27.2849C30.9978 27.4727 31.2247 27.5762 31.4785 27.5762C31.6457 27.5762 31.8166 27.531 31.9867 27.4416L33.0081 26.9045C32.8982 26.6992 32.8618 26.4482 32.9081 26.1777Z" fill="#FFAF10"/>
<path d="M52.8418 4.64844C52.8418 5.02441 52.5342 5.33203 52.1582 5.33203H17.8418C17.4658 5.33203 17.1582 5.02441 17.1582 4.64844V0.683594C17.1582 0.307617 17.4658 0 17.8418 0H52.1582C52.5342 0 52.8418 0.307617 52.8418 0.683594V4.64844Z" fill="#FFD00D"/>
<path d="M21.3281 4.64844V0.683594C21.3281 0.307617 21.6357 0 22.0117 0H17.8418C17.4658 0 17.1582 0.307617 17.1582 0.683594V4.64844C17.1582 5.02441 17.4658 5.33203 17.8418 5.33203H22.0117C21.6357 5.33203 21.3281 5.02441 21.3281 4.64844Z" fill="#FFAF10"/>
<path d="M17.3633 45.2538C17.1873 45.2538 17.0309 45.1415 16.9747 44.9749C16.1878 42.6433 15.5988 42.0543 13.2673 41.2675C13.1005 41.2111 12.9883 41.0547 12.9883 40.8788C12.9883 40.7028 13.1005 40.5464 13.2672 40.4902C15.5987 39.7034 16.1876 39.1143 16.9746 36.7828C17.0309 36.6161 17.1872 36.5039 17.3631 36.5039C17.5391 36.5039 17.6955 36.6161 17.7517 36.7828C18.5387 39.1143 19.1276 39.7034 21.4591 40.4902C21.6258 40.5465 21.7381 40.7028 21.7381 40.8788C21.7381 41.0547 21.6259 41.2111 21.4591 41.2675C19.1276 42.0543 18.5387 42.6433 17.7517 44.9749C17.6956 45.1415 17.5392 45.2538 17.3633 45.2538Z" fill="#FFD00D"/>
<path d="M51.3379 40.7422C51.1978 40.7422 51.0729 40.6528 51.0281 40.52C50.4011 38.662 49.9316 38.1927 48.0737 37.5657C47.9411 37.5207 47.8516 37.3961 47.8516 37.2559C47.8516 37.1157 47.9411 36.991 48.0737 36.9462C49.9317 36.3192 50.4011 35.8497 51.0281 33.9918C51.0729 33.8589 51.1976 33.7695 51.3379 33.7695C51.4782 33.7695 51.6026 33.8589 51.6477 33.9918C52.2747 35.8497 52.7442 36.3191 54.6021 36.9462C54.7347 36.991 54.8242 37.1157 54.8242 37.2559C54.8242 37.3961 54.7347 37.5207 54.6021 37.5657C52.744 38.1928 52.2747 38.662 51.6477 40.52C51.6026 40.6528 51.478 40.7422 51.3379 40.7422Z" fill="white"/>
<path d="M38.6914 57.2852H31.3086C30.9311 57.2852 30.625 56.979 30.625 56.6016C30.625 56.2241 30.9311 55.918 31.3086 55.918H38.6914C39.069 55.918 39.375 56.2241 39.375 56.6016C39.375 56.979 39.069 57.2852 38.6914 57.2852Z" fill="white"/>
<path d="M37.0508 59.7461H32.9492C32.5717 59.7461 32.2656 59.44 32.2656 59.0625C32.2656 58.685 32.5717 58.3789 32.9492 58.3789H37.0508C37.4284 58.3789 37.7344 58.685 37.7344 59.0625C37.7344 59.44 37.4284 59.7461 37.0508 59.7461Z" fill="white"/>
<path d="M26.6602 10.9375C26.5282 10.9375 26.4109 10.8533 26.3687 10.7283C25.7785 8.97969 25.3367 8.53795 23.5881 7.94773C23.4631 7.90549 23.3789 7.78818 23.3789 7.65625C23.3789 7.52432 23.4631 7.40701 23.5881 7.36477C25.3367 6.77469 25.7785 6.33281 26.3687 4.58418C26.4109 4.45922 26.5282 4.375 26.6602 4.375C26.7921 4.375 26.9094 4.45922 26.9516 4.58418C27.5419 6.33281 27.9836 6.77455 29.7322 7.36477C29.8572 7.40701 29.9414 7.52432 29.9414 7.65625C29.9414 7.78818 29.8572 7.90549 29.7322 7.94773C27.9836 8.53795 27.5419 8.97969 26.9516 10.7283C26.9094 10.8533 26.7921 10.9375 26.6602 10.9375Z" fill="white"/>
</svg>
