<svg width="70" height="70" viewBox="0 0 70 70" fill="none" xmlns="http://www.w3.org/2000/svg">
<g clip-path="url(#clip0)">
<path d="M31.0882 65.4643H2.54379C1.13887 65.4643 0 64.3255 0 62.9205V44.208C0 42.8031 1.13887 41.6641 2.54379 41.6641H31.0882C32.4931 41.6641 33.6321 42.8029 33.6321 44.208V62.9204C33.6323 64.3255 32.4931 65.4643 31.0882 65.4643Z" fill="#DEDFDF"/>
<path opacity="0.2" d="M31.0884 41.6642H4.12608C4.40786 43.7044 5.05933 45.7815 5.99749 47.8247C4.87271 48.6292 3.97009 49.7691 3.46136 51.167C2.12028 54.8513 4.01999 58.9249 7.70415 60.266C10.0821 61.1316 12.6212 60.6454 14.484 59.2026C17.3663 61.8682 20.5664 64.0582 23.7132 65.4647H31.0882C32.4932 65.4647 33.6322 64.3259 33.6322 62.9208V44.208C33.6324 42.8031 32.4933 41.6642 31.0884 41.6642Z" fill="black"/>
<path d="M42.4933 22.2337C30.9514 18.0329 10.822 21.6032 6.69517 32.9414C2.56845 44.2795 15.6934 59.9536 27.2354 64.1544C38.7773 68.3552 51.5494 62.3765 55.7627 50.8004C59.9761 39.2243 54.0351 26.4347 42.4933 22.2337Z" fill="#40BAB3"/>
<path d="M10.7159 59.7257C14.6369 59.7257 17.8155 56.5471 17.8155 52.626C17.8155 48.705 14.6369 45.5264 10.7159 45.5264C6.79484 45.5264 3.61621 48.705 3.61621 52.626C3.61621 56.5471 6.79484 59.7257 10.7159 59.7257Z" fill="#0081C6"/>
<path d="M10.7156 55.9402C12.546 55.9402 14.0298 54.4563 14.0298 52.626C14.0298 50.7956 12.546 49.3118 10.7156 49.3118C8.88519 49.3118 7.40137 50.7956 7.40137 52.626C7.40137 54.4563 8.88519 55.9402 10.7156 55.9402Z" fill="#F3C74F"/>
<path opacity="0.2" d="M6.77051 46.724C8.46363 50.8922 11.3976 54.9728 14.8749 58.3785C15.9882 57.575 16.8809 56.4411 17.3858 55.0538C18.7268 51.3695 16.827 47.2958 13.143 45.9549C10.9343 45.1507 8.58641 45.5124 6.77051 46.724Z" fill="black"/>
<path d="M42.4933 22.2337C30.9514 18.0329 10.822 21.6032 6.69517 32.9414C2.56845 44.2795 15.6934 59.9536 27.2354 64.1544C38.7773 68.3552 51.5494 62.3765 55.7627 50.8004C59.9761 39.2243 54.0351 26.4347 42.4933 22.2337Z" fill="#40BAB3"/>
<path d="M31.1973 65.1965C41.5656 66.9255 52.0279 61.0634 55.7633 50.8006C59.4987 40.5378 55.2521 29.322 46.1982 23.9818L31.1973 65.1965Z" fill="white"/>
<path d="M41.0801 64.5915C47.6427 62.6598 53.2387 57.7351 55.7627 50.8002C58.2867 43.8653 57.1656 36.4959 53.3798 30.7977L41.0801 64.5915Z" fill="#0081C6"/>
<path opacity="0.2" d="M54.3489 47.7688C50.1357 59.3449 37.3635 65.3236 25.8216 61.1228C18.8731 58.5936 11.3525 51.906 7.36621 44.5097C10.7203 53.0524 19.3469 61.2832 27.2354 64.1542C38.7772 68.3551 51.5495 62.3764 55.7627 50.8002C58.0793 44.4356 57.3253 37.7046 54.2596 32.2355C56.0829 37.058 56.253 42.5372 54.3489 47.7688Z" fill="black"/>
<path d="M24.9566 60.6165C24.8287 60.6165 24.6989 60.5946 24.5718 60.5484C23.9878 60.3358 23.6867 59.6901 23.8992 59.1061L25.1727 55.6071C25.3852 55.0232 26.0309 54.722 26.615 54.9344C27.199 55.147 27.5001 55.7928 27.2876 56.3767L26.0141 59.8757C25.8477 60.3328 25.4161 60.6165 24.9566 60.6165Z" fill="#F0B0B7"/>
<path d="M33.8569 36.1633C33.7291 36.1633 33.5992 36.1415 33.4722 36.0953C32.8882 35.8827 32.5871 35.2369 32.7996 34.653L34.0732 31.154C34.2858 30.5702 34.9316 30.2693 35.5155 30.4815C36.0995 30.6941 36.4006 31.3398 36.188 31.9237L34.9145 35.4227C34.7482 35.8795 34.3166 36.1633 33.8569 36.1633Z" fill="#F0B0B7"/>
<path d="M25.6294 49.5446C25.2541 49.5446 24.8729 49.4803 24.5005 49.3447C23.9165 49.1321 23.6153 48.4864 23.8279 47.9025C24.0407 47.3184 24.6863 47.0176 25.2702 47.2298C25.8191 47.4301 26.4285 47.1456 26.6284 46.5965C26.8282 46.0476 26.544 45.4383 25.9951 45.2384C25.5382 45.0721 25.2545 44.6408 25.2543 44.1813C25.2543 44.0533 25.2762 43.9231 25.3224 43.7961C25.535 43.2121 26.1805 42.911 26.7647 43.1236C27.314 43.3236 27.923 43.0394 28.1228 42.4903C28.3227 41.9414 28.0385 41.332 27.4896 41.1323C26.9055 40.9197 26.6044 40.2741 26.8169 39.6901C27.0294 39.106 27.6749 38.8048 28.2591 39.0174C29.09 39.3198 29.7533 39.9277 30.1271 40.729C30.5008 41.5303 30.54 42.4292 30.2377 43.2601C29.9595 44.0243 29.423 44.6467 28.7154 45.0325C28.9978 45.756 29.0291 46.581 28.7433 47.3664C28.2544 48.7091 26.9819 49.5446 25.6294 49.5446Z" fill="#394049"/>
<path d="M29.3101 33.5799C29.1823 33.5799 29.0524 33.5581 28.9253 33.5118C28.3413 33.2993 28.0402 32.6535 28.2528 32.0696L28.9296 30.2098C29.1424 29.6259 29.7881 29.3247 30.3719 29.5373C30.9558 29.7499 31.257 30.3956 31.0444 30.9795L30.3675 32.8392C30.2014 33.2962 29.7698 33.5799 29.3101 33.5799Z" fill="#394049"/>
<path d="M20.4097 58.0331C20.2819 58.0331 20.152 58.0113 20.0249 57.9651C19.441 57.7525 19.1398 57.1067 19.3524 56.5228L20.0293 54.663C20.2419 54.0791 20.8874 53.7783 21.4715 53.9905C22.0554 54.2031 22.3566 54.8488 22.144 55.4328L21.4671 57.2924C21.3009 57.7495 20.8693 58.0331 20.4097 58.0331Z" fill="#394049"/>
<path d="M20.0914 26.213C20.2257 26.2666 20.3686 26.2994 20.5124 26.3131C22.4072 26.4912 23.8667 26.1668 25.4531 25.4271C27.0325 24.6906 28.1643 23.8232 29.255 22.252C29.3481 22.1179 29.4235 21.9705 29.474 21.8152C30.6822 18.1071 28.6652 14.0735 24.8892 12.8593C21.384 11.7322 17.5412 13.5239 16.1515 16.9338C14.6511 20.6155 16.4566 24.7645 20.0914 26.213Z" fill="#0081C6"/>
<path d="M22.7224 22.9342C24.5528 22.9342 26.0366 21.4504 26.0366 19.62C26.0366 17.7896 24.5528 16.3058 22.7224 16.3058C20.892 16.3058 19.4082 17.7896 19.4082 19.62C19.4082 21.4504 20.892 22.9342 22.7224 22.9342Z" fill="#F3C74F"/>
<path d="M47.034 21.7435C59.5533 25.9241 68.2889 37.2763 69.1229 50.4487L69.9938 64.204C70.1141 66.1037 68.6057 67.7106 66.7021 67.7106H30.7578L47.034 21.7435Z" fill="#8E78CF"/>
<g opacity="0.2">
<path opacity="0.2" d="M50.3779 61.6381C50.1771 61.6381 49.9738 61.5844 49.7899 61.4716L48.51 60.6855C47.9805 60.3601 47.815 59.6672 48.1402 59.1377C48.4655 58.6082 49.1582 58.4427 49.688 58.7679L50.9678 59.554C51.4974 59.8792 51.6629 60.5723 51.3377 61.1018C51.1252 61.4474 50.7559 61.6381 50.3779 61.6381Z" fill="#25292F"/>
<path opacity="0.2" d="M56.5849 38.4035C56.3841 38.4035 56.1808 38.3498 55.9969 38.237L54.7171 37.4509C54.1876 37.1256 54.022 36.4326 54.3473 35.9031C54.6725 35.3734 55.3654 35.2081 55.8951 35.5333L57.1749 36.3194C57.7044 36.6448 57.8699 37.3377 57.5447 37.8672C57.3322 38.2131 56.963 38.4035 56.5849 38.4035Z" fill="#25292F"/>
<path opacity="0.2" d="M62.5381 48.82C62.3372 48.82 62.1339 48.7662 61.95 48.6535L60.6702 47.8673C60.1407 47.5421 59.9751 46.849 60.3004 46.3195C60.6256 45.7899 61.3185 45.6245 61.8482 45.9497L63.128 46.7358C63.6575 47.0611 63.8231 47.7541 63.4978 48.2836C63.2855 48.6295 62.9162 48.82 62.5381 48.82Z" fill="#25292F"/>
<path opacity="0.2" d="M50.0986 49.677C49.8978 49.677 49.6945 49.6233 49.5106 49.5105L48.2308 48.7243C47.7012 48.3991 47.5357 47.7061 47.8609 47.1766C48.1862 46.647 48.8791 46.4815 49.4087 46.8067L50.6886 47.5929C51.2181 47.9183 51.3836 48.6111 51.0584 49.1407C50.8461 49.4863 50.4768 49.677 50.0986 49.677Z" fill="#25292F"/>
<path opacity="0.2" d="M60.2939 59.2598C60.0931 59.2598 59.8898 59.206 59.7059 59.0932L58.4261 58.3071C57.8966 57.9819 57.731 57.2888 58.0562 56.7593C58.3815 56.2298 59.0743 56.0642 59.604 56.3895L60.8839 57.1756C61.4134 57.5009 61.5789 58.1939 61.2537 58.7234C61.0412 59.0692 60.672 59.2598 60.2939 59.2598Z" fill="#25292F"/>
</g>
<path d="M51.2244 20.2969H45.3492C44.2402 20.2969 43.2496 20.99 42.8696 22.0317L26.9542 65.6596C26.5907 66.6562 27.3285 67.7108 28.3893 67.7108H34.2644C35.3733 67.7108 36.3639 67.0176 36.7441 65.976L52.6595 22.3481C53.0231 21.3515 52.2852 20.2969 51.2244 20.2969Z" fill="#C0B2DF"/>
<path d="M42.447 16.163H35.7453C35.282 16.163 34.8661 15.8791 34.6975 15.4477C34.5287 15.0163 34.6416 14.5255 34.9819 14.211L39.5707 9.97207H35.7456C35.1242 9.97207 34.6204 9.46826 34.6204 8.84687C34.6204 8.22549 35.1242 7.72168 35.7456 7.72168H42.4471C42.9105 7.72168 43.3262 8.00551 43.495 8.43699C43.6638 8.86848 43.5509 9.35916 43.2104 9.67361L38.6219 13.9124H42.447C43.0687 13.9124 43.5722 14.4162 43.5722 15.0376C43.5722 15.659 43.0685 16.163 42.447 16.163Z" fill="#F3C74F"/>
<path d="M53.0283 9.26757H47.9104C47.447 9.26757 47.0313 8.98374 46.8626 8.55239C46.6937 8.12104 46.8066 7.63022 47.1471 7.31577L50.1522 4.5397H47.9107C47.289 4.5397 46.7855 4.03589 46.7855 3.4145C46.7855 2.79312 47.2891 2.28931 47.9107 2.28931H53.0286C53.4919 2.28931 53.9077 2.57313 54.0764 3.00462C54.2451 3.4361 54.1323 3.92692 53.7919 4.24124L50.7867 7.01718H53.0282C53.6498 7.01718 54.1534 7.52099 54.1534 8.14237C54.1534 8.76376 53.6498 9.26757 53.0283 9.26757Z" fill="#0081C6"/>
</g>
<defs>
<clipPath id="clip0">
<rect width="70" height="70" fill="white"/>
</clipPath>
</defs>
</svg>
