<svg width="62" height="62" viewBox="0 0 62 62" fill="none" xmlns="http://www.w3.org/2000/svg">
<path d="M31 0C13.9071 0 0 13.9059 0 31C0 48.0941 13.9071 62 31 62C48.0929 62 62 48.0941 62 31C62 13.9059 48.0929 0 31 0ZM45.9038 33.3846H33.3846V46.5C33.3846 47.8163 32.3163 48.8846 31 48.8846C29.6837 48.8846 28.6154 47.8163 28.6154 46.5V33.3846H16.0962C14.7798 33.3846 13.7115 32.3163 13.7115 31C13.7115 29.6837 14.7798 28.6154 16.0962 28.6154H28.6154V16.6923C28.6154 15.376 29.6837 14.3077 31 14.3077C32.3163 14.3077 33.3846 15.376 33.3846 16.6923V28.6154H45.9038C47.2202 28.6154 48.2885 29.6837 48.2885 31C48.2885 32.3163 47.2202 33.3846 45.9038 33.3846Z" fill="#EE5B5B"/>
</svg>
