<svg width="22" height="22" viewBox="0 0 22 22" fill="none" xmlns="http://www.w3.org/2000/svg">
<g clip-path="url(#clip0)">
<path d="M13.6801 3.70733L18.1554 8.18259L6.82722 19.5108L2.35447 15.0355L13.6801 3.70733ZM21.5513 2.628L19.5555 0.632195C18.7842 -0.139117 17.5317 -0.139117 16.7578 0.632195L14.846 2.54398L19.3213 7.01928L21.5513 4.78928C22.1495 4.19101 22.1495 3.22624 21.5513 2.628ZM0.0124537 21.3259C-0.068991 21.6924 0.261945 22.0209 0.62853 21.9317L5.6155 20.7226L1.14274 16.2473L0.0124537 21.3259Z" fill="#4A452A"/>
</g>
<defs>
<clipPath id="clip0">
<rect width="22" height="22" fill="white"/>
</clipPath>
</defs>
</svg>
