<svg width="40" height="40" viewBox="0 0 40 40" fill="none" xmlns="http://www.w3.org/2000/svg">
<path d="M38.7913 16.5861C38.0482 12.0558 35.618 7.93136 32.0449 5.05656L33.0448 4.9355C33.3773 4.89523 33.6143 4.59301 33.574 4.26047C33.5337 3.92793 33.2314 3.69106 32.899 3.73125L30.3859 4.03557C30.3795 4.03638 30.3733 4.03783 30.3669 4.0388C30.3561 4.04042 30.3454 4.04212 30.3347 4.0443C30.3258 4.04616 30.3172 4.04851 30.3084 4.05069C30.2981 4.05336 30.2878 4.05603 30.2775 4.05918C30.2691 4.06185 30.2609 4.06484 30.2526 4.06784C30.2423 4.07156 30.2319 4.07536 30.2217 4.07972C30.2141 4.08296 30.2068 4.08652 30.1993 4.08999C30.1888 4.09501 30.1783 4.1001 30.168 4.10568C30.1613 4.10932 30.1549 4.11329 30.1483 4.11725C30.1379 4.12347 30.1275 4.12986 30.1174 4.13674C30.1113 4.14094 30.1053 4.14539 30.0993 4.14984C30.0894 4.15712 30.0797 4.16448 30.0703 4.1724C30.0642 4.1775 30.0584 4.18283 30.0525 4.18817C30.0438 4.19602 30.0353 4.20394 30.027 4.21227C30.0206 4.21874 30.0146 4.22553 30.0085 4.23233C30.0014 4.24025 29.9943 4.2481 29.9875 4.25651C29.9856 4.25893 29.9833 4.26112 29.9814 4.26354C29.9768 4.26937 29.9729 4.27567 29.9685 4.28166C29.9645 4.28724 29.96 4.29241 29.9561 4.29824C29.9545 4.30058 29.9532 4.30309 29.9517 4.30543C29.9458 4.31433 29.9406 4.32355 29.9352 4.33277C29.9302 4.34134 29.9251 4.34975 29.9207 4.35849C29.9165 4.36665 29.9127 4.37506 29.9089 4.38339C29.9042 4.3935 29.8994 4.40361 29.8953 4.41396C29.8924 4.421 29.8902 4.42828 29.8876 4.43547C29.8834 4.4472 29.8793 4.45893 29.8758 4.47082C29.874 4.4772 29.8726 4.48375 29.871 4.49022C29.8678 4.50292 29.8647 4.51562 29.8624 4.52848C29.8611 4.53511 29.8604 4.54174 29.8594 4.54837C29.8576 4.56107 29.8557 4.57376 29.8546 4.58654C29.8539 4.59398 29.8539 4.60142 29.8535 4.60894C29.853 4.62099 29.8524 4.63296 29.8526 4.64501C29.8526 4.65326 29.8533 4.66151 29.8538 4.66976C29.8544 4.68108 29.855 4.6924 29.8562 4.70364C29.8564 4.70599 29.8564 4.70833 29.8567 4.71068L30.161 7.22374C30.1983 7.53153 30.4599 7.7574 30.7624 7.7574C30.7867 7.7574 30.8113 7.75595 30.836 7.75296C31.1686 7.71268 31.4055 7.41047 31.3653 7.07793L31.2295 5.95674C34.6018 8.64706 36.8956 12.5234 37.5942 16.7825C37.643 17.0799 37.9002 17.2909 38.192 17.2909C38.2246 17.2909 38.2577 17.2883 38.2909 17.2829C38.6215 17.2286 38.8455 16.9167 38.7913 16.5861Z" fill="#324A5E"/>
<path d="M10.0822 4.01187C5.2321 7.20546 2.17931 12.3991 1.7185 18.1179L1.06499 17.3633C0.845664 17.11 0.46266 17.0826 0.209454 17.3019C-0.043753 17.5213 -0.071249 17.9043 0.148073 18.1575L1.80536 20.071C1.91065 20.1926 2.05994 20.2673 2.22047 20.2789C2.23494 20.2799 2.24934 20.2804 2.26382 20.2804C2.40922 20.2804 2.55034 20.2282 2.66089 20.1323L4.57429 18.4751C4.8275 18.2557 4.855 17.8727 4.63568 17.6194C4.41627 17.3662 4.03319 17.3388 3.78014 17.5581L2.92275 18.3007C3.33034 12.9198 6.18969 8.02727 10.7493 5.02502C11.0291 4.8408 11.1066 4.46467 10.9223 4.18485C10.7381 3.9052 10.3619 3.82765 10.0822 4.01187Z" fill="#324A5E"/>
<path d="M24.531 36.8578L22.574 35.2522C22.315 35.0397 21.9329 35.0773 21.7203 35.3363C21.5079 35.5953 21.5456 35.9775 21.8046 36.1899L22.7301 36.9492C20.8771 37.2002 18.9666 37.1566 17.1373 36.817C16.8085 36.7559 16.4914 36.9732 16.4302 37.3026C16.3691 37.632 16.5865 37.9485 16.9158 38.0097C18.0401 38.2184 19.1949 38.3242 20.3478 38.3242C21.122 38.3242 21.8955 38.2753 22.6611 38.1809L22.0719 38.899C21.8595 39.158 21.8972 39.5402 22.1562 39.7526C22.269 39.8452 22.4052 39.8903 22.5406 39.8903C22.7159 39.8903 22.8899 39.8146 23.0099 39.6684L24.6155 37.7114C24.8278 37.4524 24.79 37.0702 24.531 36.8578Z" fill="#324A5E"/>
<path d="M16.9339 29.6282L17.4643 28.777C17.6153 28.5347 17.7041 28.2563 17.7052 27.9709C17.7052 27.9688 17.7052 27.9666 17.7052 27.9645C17.7052 27.6066 17.5933 27.2742 17.403 27.0007C17.7538 26.6909 17.9755 26.2384 17.9755 25.7336C17.9755 25.0054 17.5149 24.3849 16.8695 24.147C16.9046 24.0113 16.9235 23.8692 16.9235 23.7227C16.9235 22.7886 16.1661 22.0318 15.2326 22.0318C15.1017 22.0318 14.9747 22.0469 14.852 22.0755C14.8449 21.1479 14.0908 20.3982 13.1616 20.3982C12.8799 20.3982 12.614 20.4679 12.3805 20.5895C12.2297 19.8106 11.5442 19.2224 10.7209 19.2224C10.2144 19.2224 9.76035 19.4451 9.45062 19.7976C9.14088 19.4451 8.68679 19.2224 8.1803 19.2224C7.35703 19.2224 6.67157 19.8106 6.52075 20.5895C6.28719 20.4679 6.02129 20.3982 5.73962 20.3982C4.81041 20.3982 4.05629 21.1479 4.04926 22.0755C3.92657 22.0469 3.79953 22.0318 3.66868 22.0318C2.7351 22.0318 1.97775 22.7886 1.97775 23.7227C1.97775 23.8692 1.99667 24.0113 2.03177 24.147C1.38634 24.3849 0.925781 25.0055 0.925781 25.7336C0.925781 26.2384 1.14745 26.6909 1.49827 27.0007C1.30798 27.2742 1.19605 27.6066 1.19605 27.9645C1.19605 27.9666 1.19605 27.9688 1.19605 27.9709C1.1971 28.2563 1.2859 28.5347 1.43688 28.777L1.96732 29.6282" fill="#3E5268"/>
<path d="M9.47973 20.5895C9.24617 20.4679 8.98027 20.3982 8.6986 20.3982C7.76939 20.3982 7.01527 21.1479 7.00824 22.0755C6.88556 22.0469 6.75851 22.0318 6.62766 22.0318C5.69409 22.0318 4.93673 22.7886 4.93673 23.7227C4.93673 23.8692 4.95565 24.0113 4.99075 24.147C4.34532 24.3849 3.88476 25.0055 3.88476 25.7336C3.88476 26.2385 4.10643 26.691 4.45725 27.0007C4.26696 27.2742 4.15503 27.6067 4.15503 27.9645V27.971C4.15609 28.2564 4.2448 28.5348 4.39562 28.777L4.92646 29.6284H1.9674L1.43713 28.777C1.2863 28.5348 1.1971 28.2564 1.19605 27.971V27.9645C1.19605 27.6067 1.30798 27.2742 1.49827 27.0007C1.14745 26.691 0.925781 26.2385 0.925781 25.7336C0.925781 25.0055 1.38634 24.385 2.03177 24.147C1.99667 24.0113 1.97775 23.8692 1.97775 23.7227C1.97775 22.7886 2.7351 22.0318 3.66868 22.0318C3.79953 22.0318 3.92649 22.0469 4.04925 22.0755C4.05629 21.1479 4.81041 20.3982 5.73962 20.3982C6.02129 20.3982 6.28719 20.4679 6.52075 20.5895C6.67157 19.8106 7.35703 19.2224 8.1803 19.2224C8.61223 19.2224 9.00631 19.3846 9.30464 19.6516C9.2824 19.9998 9.33546 20.3409 9.47973 20.5895Z" fill="#27394C"/>
<path d="M18.2431 31.6378C18.2431 32.7435 17.3915 33.6496 16.3087 33.7363C16.2523 33.7411 16.1948 33.7435 16.1374 33.7435C15.9899 33.7435 15.8463 33.7286 15.7075 33.6994H3.0248C2.88595 33.7286 2.7424 33.7435 2.59497 33.7435H2.59352C1.43084 33.7425 0.489258 32.8005 0.489258 31.6379C0.489258 30.5417 1.32692 29.6413 2.39724 29.5423C2.46234 29.5355 2.52842 29.5327 2.59489 29.5327C2.68344 29.5327 2.77006 29.538 2.85578 29.5485H15.8765C15.9623 29.538 16.0489 29.5327 16.1374 29.5327C16.2624 29.5327 16.3849 29.5437 16.5036 29.5648C17.4921 29.7375 18.2431 30.6 18.2431 31.6378Z" fill="#C99061"/>
<path d="M16.5038 29.5645V32.2316C16.5038 32.7495 16.4363 33.2536 16.309 33.7361C16.2526 33.7408 16.1951 33.7432 16.1377 33.7432C15.9902 33.7432 15.8466 33.7284 15.7078 33.6992H3.02502C2.88616 33.7284 2.74262 33.7432 2.59519 33.7432H2.59373C2.46547 33.2583 2.39746 32.7524 2.39746 32.2316V29.542C2.46256 29.5353 2.52863 29.5325 2.59511 29.5325C2.68366 29.5325 2.77028 29.5377 2.856 29.5482H15.8768C15.9625 29.5377 16.0491 29.5325 16.1377 29.5325C16.2626 29.5325 16.3851 29.5435 16.5038 29.5645Z" fill="#A86340"/>
<path d="M17.0953 32.1064C16.9388 32.1064 16.7897 32.0153 16.7233 31.8625C16.5539 31.4729 16.0422 31.5975 15.9845 31.6129C15.7691 31.6741 15.5464 31.5486 15.4851 31.3332C15.424 31.1178 15.5504 30.8933 15.7658 30.8321C16.1949 30.7103 17.1025 30.7014 17.4668 31.5392C17.5561 31.7445 17.462 31.9834 17.2566 32.0726C17.204 32.0956 17.1492 32.1064 17.0953 32.1064Z" fill="#A86340"/>
<path d="M1.85356 32.1064C1.79953 32.1064 1.74462 32.0955 1.69198 32.0726C1.48664 31.9832 1.39267 31.7443 1.48204 31.539C1.68801 31.0657 2.22354 30.6268 3.10851 30.814C3.32759 30.8603 3.46758 31.0754 3.42124 31.2945C3.37498 31.5136 3.15986 31.6536 2.9407 31.6072C2.73408 31.5635 2.36652 31.5386 2.22556 31.8625C2.15909 32.0153 2.01004 32.1064 1.85356 32.1064Z" fill="#A86340"/>
<path d="M15.8758 28.6873V32.9756C15.8758 36.1071 13.6357 38.7153 10.6702 39.2851C10.2755 39.3612 9.86746 39.4013 9.4496 39.4013C5.90075 39.4013 3.02441 36.5244 3.02441 32.9755V28.6878C3.3331 29.0202 3.7736 29.2278 4.26287 29.2278C4.73313 29.2278 5.15859 29.0359 5.4651 28.7256C5.76674 28.4202 5.95323 28.0007 5.95323 27.5374C5.95323 27.4406 5.94514 27.3461 5.92946 27.2537C5.93649 27.2542 5.94353 27.2542 5.95056 27.2542C6.52847 27.2542 7.03819 26.9645 7.34356 26.5218C7.57493 26.6408 7.83655 26.7083 8.11499 26.7083C8.65771 26.7083 9.141 26.4521 9.45017 26.0542C9.75934 26.4521 10.2421 26.7083 10.7853 26.7083C11.0632 26.7083 11.3254 26.6407 11.5567 26.5218C11.8616 26.9645 12.3719 27.2542 12.9498 27.2542C12.9568 27.2542 12.9638 27.2542 12.9709 27.2537C12.9552 27.3461 12.9465 27.4407 12.9465 27.5374C12.9465 28.471 13.7039 29.2278 14.6375 29.2278C15.1266 29.2279 15.5677 29.0197 15.8758 28.6873Z" fill="#A86340"/>
<path d="M15.8766 28.6872V32.9755C15.8766 36.107 13.6364 38.7152 10.6709 39.285C7.70586 38.7152 5.46582 36.107 5.46582 32.9755V28.7256C5.76747 28.4202 5.95396 28.0007 5.95396 27.5375C5.95396 27.4406 5.94587 27.3461 5.93018 27.2537C5.93722 27.2542 5.94425 27.2542 5.95129 27.2542C6.52919 27.2542 7.03892 26.9645 7.34429 26.5218C7.57566 26.6408 7.83728 26.7083 8.11571 26.7083C8.65844 26.7083 9.14172 26.4521 9.45089 26.0542C9.76006 26.4521 10.2429 26.7083 10.7861 26.7083C11.0639 26.7083 11.3261 26.6407 11.5574 26.5218C11.8623 26.9645 12.3726 27.2542 12.9505 27.2542C12.9575 27.2542 12.9646 27.2542 12.9716 27.2537C12.9559 27.3461 12.9473 27.4407 12.9473 27.5375C12.9473 28.471 13.7046 29.2278 14.6382 29.2278C15.1273 29.2278 15.5684 29.0196 15.8766 28.6872Z" fill="#C99061"/>
<path d="M9.4507 35.4608C8.67418 35.4608 7.94416 35.1584 7.39513 34.6094C7.23678 34.451 7.23678 34.1943 7.39513 34.036C7.55347 33.8776 7.81015 33.8777 7.9685 34.036C8.36436 34.4319 8.89075 34.65 9.4507 34.65C10.0106 34.65 10.537 34.4319 10.9329 34.036C11.0912 33.8776 11.3479 33.8776 11.5063 34.036C11.6646 34.1943 11.6646 34.451 11.5063 34.6094C10.9572 35.1584 10.2271 35.4608 9.4507 35.4608Z" fill="#965D36"/>
<path d="M6.6515 32.5147C6.42757 32.5147 6.24609 32.3331 6.24609 32.1092V30.5297C6.24609 30.3057 6.42765 30.1243 6.6515 30.1243C6.87535 30.1243 7.0569 30.3058 7.0569 30.5297V32.1092C7.05698 32.3331 6.87543 32.5147 6.6515 32.5147Z" fill="#172635"/>
<path d="M12.2501 32.5147C12.0262 32.5147 11.8447 32.3331 11.8447 32.1092V30.5297C11.8447 30.3057 12.0263 30.1243 12.2501 30.1243C12.474 30.1243 12.6555 30.3058 12.6555 30.5297V32.1092C12.6556 32.3331 12.4741 32.5147 12.2501 32.5147Z" fill="#172635"/>
<path d="M25.5914 25.5139H36.8229C37.89 25.5139 38.7551 26.379 38.7551 27.4462V27.6165C38.7551 28.6836 37.89 29.5487 36.8229 29.5487H25.5914C24.5243 29.5487 23.6592 28.6836 23.6592 27.6165V27.4462C23.6593 26.379 24.5243 25.5139 25.5914 25.5139Z" fill="#324A5E"/>
<path d="M40.0004 31.6379C40.0004 32.7437 39.1488 33.6498 38.0661 33.7365C38.0096 33.7412 37.9521 33.7437 37.8947 33.7437C37.7473 33.7437 37.6036 33.7288 37.4649 33.6996H24.7816C24.6428 33.7288 24.4992 33.7437 24.3518 33.7437H24.3504C23.1877 33.7427 22.2461 32.8006 22.2461 31.6379C22.2461 30.5417 23.0838 29.6414 24.1542 29.5423C24.2193 29.5355 24.2853 29.5327 24.3519 29.5327C24.4404 29.5327 24.5271 29.538 24.6128 29.5485H37.6339C37.7196 29.538 37.8062 29.5327 37.8948 29.5327C38.0197 29.5327 38.1422 29.5437 38.261 29.5648C39.2493 29.7376 40.0004 30.6001 40.0004 31.6379Z" fill="#FFCBB3"/>
<path d="M38.2611 29.5647V32.2319C38.2611 32.7498 38.1936 33.2539 38.0663 33.7365C38.0098 33.7412 37.9523 33.7437 37.8949 33.7437C37.7475 33.7437 37.6039 33.7288 37.4651 33.6996H24.7819C24.643 33.7288 24.4995 33.7437 24.352 33.7437H24.3506C24.2223 33.2588 24.1543 32.7527 24.1543 32.2319V29.5423C24.2194 29.5355 24.2855 29.5327 24.352 29.5327C24.4406 29.5327 24.5272 29.538 24.6129 29.5485H37.634C37.7197 29.538 37.8064 29.5327 37.8949 29.5327C38.0198 29.5327 38.1424 29.5437 38.2611 29.5647Z" fill="#E89876"/>
<path d="M38.8521 32.1069C38.6956 32.1069 38.5465 32.0157 38.4801 31.863C38.3108 31.4735 37.7991 31.5979 37.7413 31.6135C37.526 31.6746 37.3032 31.5492 37.242 31.3337C37.1808 31.1183 37.3072 30.8937 37.5227 30.8326C37.9517 30.7109 38.8594 30.7018 39.2237 31.5396C39.313 31.745 39.2189 31.9839 39.0135 32.0731C38.9609 32.0961 38.906 32.1069 38.8521 32.1069Z" fill="#E89876"/>
<path d="M23.6104 32.1069C23.5564 32.1069 23.5015 32.096 23.4488 32.0731C23.2435 31.9837 23.1495 31.7448 23.2389 31.5395C23.4448 31.0662 23.9803 30.6273 24.8654 30.8145C25.0845 30.8608 25.2245 31.076 25.1781 31.2951C25.1318 31.5142 24.9167 31.6541 24.6975 31.6078C24.4909 31.5641 24.1234 31.5391 23.9824 31.8631C23.9159 32.0157 23.7669 32.1069 23.6104 32.1069Z" fill="#E89876"/>
<path d="M37.6334 28.5997V32.9758C37.6334 36.1074 35.3932 38.7157 32.4278 39.2858C32.0329 39.3619 31.6245 39.4016 31.2071 39.4016C27.6582 39.4016 24.7812 36.5247 24.7812 32.9757V28.5997C24.7812 25.0507 27.6582 22.1733 31.2071 22.1733C31.6245 22.1733 32.0328 22.213 32.4278 22.2891C33.713 22.5361 34.8619 23.1661 35.7512 24.0554C36.9139 25.2189 37.6334 26.8253 37.6334 28.5997Z" fill="#E89876"/>
<path d="M37.634 28.5997V32.9758C37.634 36.1074 35.3938 38.7157 32.4283 39.2858C29.4629 38.7156 27.2227 36.1073 27.2227 32.9758V28.5997C27.2227 25.4682 29.4629 22.8594 32.4283 22.2893C33.7136 22.5363 34.8625 23.1663 35.7518 24.0556C36.9145 25.2189 37.634 26.8253 37.634 28.5997Z" fill="#FFCBB3"/>
<path d="M31.2071 35.8211C30.1397 35.8211 29.1362 35.4054 28.3815 34.6506C28.2231 34.4923 28.2231 34.2356 28.3815 34.0773C28.5398 33.9189 28.7965 33.9189 28.9548 34.0773C29.5564 34.6788 30.3563 35.0102 31.2071 35.0102C32.0578 35.0102 32.8577 34.6788 33.4593 34.0773C33.6177 33.9189 33.8744 33.9189 34.0327 34.0773C34.1911 34.2356 34.1911 34.4923 34.0327 34.6506C33.2779 35.4054 32.2745 35.8211 31.2071 35.8211Z" fill="#D39262"/>
<path d="M28.4083 32.5149C28.1844 32.5149 28.0029 32.3333 28.0029 32.1095V30.5299C28.0029 30.306 28.1845 30.1245 28.4083 30.1245C28.6322 30.1245 28.8137 30.3061 28.8137 30.5299V32.1095C28.8137 32.3334 28.6323 32.5149 28.4083 32.5149Z" fill="#172635"/>
<path d="M34.0079 32.5149C33.784 32.5149 33.6025 32.3333 33.6025 32.1095V30.5299C33.6025 30.306 33.7841 30.1245 34.0079 30.1245C34.2318 30.1245 34.4133 30.3061 34.4133 30.5299V32.1095C34.4133 32.3334 34.2319 32.5149 34.0079 32.5149Z" fill="#172635"/>
<path d="M37.2515 19.1511L34.3687 22.034C34.1244 21.4344 33.5366 21.0112 32.8492 21.0112C32.2851 21.0112 31.7877 21.2961 31.4924 21.7296C30.739 20.8015 29.5894 20.2082 28.3006 20.2082C26.0301 20.2082 24.1895 22.0488 24.1895 24.3193C24.1895 26.5899 26.0301 28.4305 28.3006 28.4305C29.2491 28.4305 30.1219 28.1085 30.8175 27.5688C32.8592 28.7389 35.5077 28.4533 37.2516 26.7095C39.3387 24.6222 39.3387 21.2383 37.2515 19.1511Z" fill="#00D7A3"/>
<path d="M26.6564 24.3193C26.6564 26.1599 27.866 27.7183 29.5336 28.242C29.1451 28.3646 28.7304 28.4304 28.3005 28.4304C26.03 28.4304 24.1895 26.5898 24.1895 24.3193C24.1895 22.0488 26.03 20.2083 28.3005 20.2083C28.7304 20.2083 29.1442 20.2741 29.5336 20.3966C27.866 20.9203 26.6564 22.4788 26.6564 24.3193Z" fill="#324A5E"/>
<path d="M25.4071 15.0711C32.525 15.0711 28.5779 11.348 28.5779 6.68733C28.5779 2.02666 24.8755 0.109619 20.3483 0.109619C15.8212 0.109619 12.1188 2.02658 12.1188 6.68733C12.1188 11.3481 8.17169 15.0711 15.2896 15.0711H25.4071Z" fill="#EE5B5B"/>
<path d="M16.1796 6.68741C16.1796 11.3479 14.1801 15.0713 17.7856 15.0713H15.2898C8.17167 15.0713 12.1188 11.3479 12.1188 6.68741C12.1188 2.02642 15.8214 0.109619 20.3485 0.109619C18.0547 0.109619 16.1796 2.02642 16.1796 6.68741Z" fill="#EE5B5B"/>
<path d="M26.0941 7.9561V11.7592C26.0941 14.559 24.0908 16.891 21.4399 17.4004C21.1364 17.4588 20.8247 17.4936 20.5062 17.5023H20.4984C20.4486 17.5038 20.3989 17.5043 20.3486 17.5043C17.1752 17.5043 14.6035 14.9321 14.6035 11.7592V7.9561C17.1273 7.74729 19.5414 6.52355 20.3486 3.79004C21.1553 6.52355 23.5698 7.74729 26.0941 7.9561Z" fill="#FFCBB3"/>
<path d="M21.3873 17.41C21.1002 17.4626 20.8064 17.4941 20.5062 17.5023H20.4984C20.4486 17.5037 20.3989 17.5042 20.3486 17.5042C17.1752 17.5042 14.6035 14.932 14.6035 11.7591V7.95602C15.3164 7.89707 16.0201 7.75692 16.6817 7.5249V11.7591C16.6818 14.5773 18.7103 16.9214 21.3873 17.41Z" fill="#E89876"/>
<path d="M20.3487 14.2024C19.6091 14.2024 18.8694 13.9209 18.3064 13.3578C18.1648 13.2163 18.1648 12.9868 18.3064 12.8452C18.4479 12.7036 18.6774 12.7036 18.819 12.8452C19.6625 13.6886 21.035 13.6886 21.8785 12.8452C22.02 12.7036 22.2495 12.7036 22.3911 12.8452C22.5327 12.9867 22.5327 13.2162 22.3911 13.3578C21.8279 13.9209 21.0883 14.2024 20.3487 14.2024Z" fill="#EE5B5B"/>
<path d="M17.8459 11.2956C17.6457 11.2956 17.4834 11.1333 17.4834 10.9332V9.52091C17.4834 9.32075 17.6457 9.15845 17.8459 9.15845C18.046 9.15845 18.2083 9.32075 18.2083 9.52091V10.9332C18.2083 11.1333 18.046 11.2956 17.8459 11.2956Z" fill="#27394C"/>
<path d="M22.8517 11.2956C22.6516 11.2956 22.4893 11.1333 22.4893 10.9332V9.52091C22.4893 9.32075 22.6516 9.15845 22.8517 9.15845C23.0519 9.15845 23.2142 9.32075 23.2142 9.52091V10.9332C23.2142 11.1333 23.0519 11.2956 22.8517 11.2956Z" fill="#27394C"/>
</svg>
