<svg width="15" height="17" viewBox="0 0 15 17" fill="none" xmlns="http://www.w3.org/2000/svg">
<path d="M0.258632 14.069H14.7414C14.8842 14.069 15 13.9377 15 13.7758V3.22415C15 3.06228 14.8842 2.93103 14.7414 2.93103H0.258632C0.11581 2.93106 0 3.06228 0 3.22415V13.7758C0 13.9377 0.11581 14.069 0.258632 14.069Z" fill="#C8414B"/>
<path d="M15 5.276H0V11.7244H15V5.276Z" fill="#FFD250"/>
<path d="M6.33608 8.50002L6.55536 7.38171C6.57558 7.27871 6.50641 7.18103 6.4133 7.18103H6.25885C6.16578 7.18103 6.09664 7.27871 6.11679 7.38171L6.33608 8.50002Z" fill="#C8414B"/>
<path d="M6.59536 7.9137H6.07812V10.4049H6.59536V7.9137Z" fill="#F5F5F5"/>
<path d="M6.72411 7.62085H5.94824V7.91397H6.72411V7.62085Z" fill="#FAB446"/>
<path d="M6.7248 8.5H5.43164V8.79312H6.7248V8.5Z" fill="#C8414B"/>
<path d="M6.72411 9.67238L5.94824 9.3793V9.08618L6.72411 9.3793V9.67238Z" fill="#C8414B"/>
<path d="M2.45717 8.50002L2.67646 7.38171C2.69668 7.27871 2.62751 7.18103 2.5344 7.18103H2.37995C2.28687 7.18103 2.21773 7.27871 2.23789 7.38171L2.45717 8.50002Z" fill="#C8414B"/>
<path d="M3.36215 7.62073C3.21933 7.62073 3.10352 7.75198 3.10352 7.91384V9.819C3.10352 10.1751 3.39678 10.8449 4.39662 10.8449C5.39646 10.8449 5.68972 10.1751 5.68972 9.819V7.91384C5.68972 7.75198 5.57391 7.62073 5.43109 7.62073H3.36215Z" fill="#F5F5F5"/>
<path d="M4.39662 9.08625H3.10352V7.91384C3.10352 7.75198 3.21933 7.62073 3.36215 7.62073H4.39662V9.08625Z" fill="#C8414B"/>
<path d="M4.39648 9.0863H5.68959V9.81906C5.68959 10.2238 5.40013 10.5518 5.04304 10.5518C4.68594 10.5518 4.39648 10.2238 4.39648 9.81906V9.0863Z" fill="#C8414B"/>
<path d="M3.10352 9.08618H4.39662V9.81894C4.39662 10.2237 4.10717 10.5517 3.75007 10.5517C3.39297 10.5517 3.10352 10.2237 3.10352 9.81894V9.08618Z" fill="#FAB446"/>
<path d="M4.13852 10.4019V9.08618H3.87988V10.5369C3.97609 10.5148 4.06302 10.4665 4.13852 10.4019Z" fill="#C8414B"/>
<path d="M3.62094 10.5369V9.08618H3.3623V10.4019C3.43783 10.4665 3.52476 10.5148 3.62094 10.5369Z" fill="#C8414B"/>
<path d="M4.13817 8.5H3.3623V8.79312H4.13817V8.5Z" fill="#FFB441"/>
<path d="M4.13817 7.9137H3.3623V8.20681H4.13817V7.9137Z" fill="#FAB446"/>
<path d="M4.00845 8.08801H3.49121V8.619H4.00845V8.08801Z" fill="#FAB446"/>
<path d="M2.71548 7.9137H2.19824V10.4049H2.71548V7.9137Z" fill="#F5F5F5"/>
<path d="M2.8452 10.2588H2.06934V10.5519H2.8452V10.2588Z" fill="#FAB446"/>
<path d="M2.8452 7.62085H2.06934V7.91397H2.8452V7.62085Z" fill="#FAB446"/>
<path d="M2.97392 10.5516H1.93945V10.8448H2.97392V10.5516Z" fill="#5064AA"/>
<path d="M6.85399 10.2588H6.07812V10.5519H6.85399V10.2588Z" fill="#FAB446"/>
<path d="M6.85381 10.5516H5.81934V10.8448H6.85381V10.5516Z" fill="#5064AA"/>
<path d="M5.17283 7.32764H3.62109V7.62075H5.17283V7.32764Z" fill="#FAB446"/>
<path d="M4.52621 6.44836H4.26758V7.32768H4.52621V6.44836Z" fill="#FFB441"/>
<path d="M4.13792 6.88795C3.92399 6.88795 3.75 6.69072 3.75 6.44831C3.75 6.20586 3.92402 6.00867 4.13792 6.00867C4.35184 6.00867 4.52584 6.20589 4.52584 6.44831C4.52587 6.69072 4.35184 6.88795 4.13792 6.88795ZM4.13792 6.30175C4.06658 6.30175 4.0086 6.36743 4.0086 6.44831C4.0086 6.52916 4.06655 6.59487 4.13792 6.59487C4.20929 6.59487 4.26724 6.52919 4.26724 6.44831C4.26724 6.36746 4.20929 6.30175 4.13792 6.30175Z" fill="#F5F5F5"/>
<path d="M4.65452 6.88795C4.4406 6.88795 4.2666 6.69072 4.2666 6.44831C4.2666 6.20586 4.44062 6.00867 4.65452 6.00867C4.86845 6.00867 5.04244 6.20589 5.04244 6.44831C5.04244 6.69072 4.86842 6.88795 4.65452 6.88795ZM4.65452 6.30175C4.58318 6.30175 4.5252 6.36743 4.5252 6.44831C4.5252 6.52916 4.58315 6.59487 4.65452 6.59487C4.72586 6.59487 4.78384 6.52919 4.78384 6.44831C4.78381 6.36746 4.72586 6.30175 4.65452 6.30175Z" fill="#F5F5F5"/>
<path d="M5.1721 7.18104C4.95817 7.18104 4.78418 6.98382 4.78418 6.7414C4.78418 6.49895 4.9582 6.30176 5.1721 6.30176C5.38602 6.30176 5.56002 6.49898 5.56002 6.7414C5.56002 6.98382 5.38599 7.18104 5.1721 7.18104ZM5.1721 6.59484C5.10076 6.59484 5.04278 6.66052 5.04278 6.7414C5.04278 6.82225 5.10073 6.88796 5.1721 6.88796C5.24344 6.88796 5.30141 6.82228 5.30141 6.7414C5.30141 6.66052 5.24344 6.59484 5.1721 6.59484Z" fill="#F5F5F5"/>
<path d="M3.62034 7.18104C3.40642 7.18104 3.23242 6.98382 3.23242 6.7414C3.23242 6.49895 3.40644 6.30176 3.62034 6.30176C3.83427 6.30176 4.00826 6.49898 4.00826 6.7414C4.00829 6.98382 3.83427 7.18104 3.62034 7.18104ZM3.62034 6.59484C3.549 6.59484 3.49102 6.66052 3.49102 6.7414C3.49102 6.82225 3.54897 6.88796 3.62034 6.88796C3.69171 6.88796 3.74966 6.82225 3.74966 6.74137C3.74966 6.66052 3.69171 6.59484 3.62034 6.59484Z" fill="#F5F5F5"/>
<path d="M5.17254 9.67248V9.81904C5.17254 9.89985 5.11453 9.9656 5.04322 9.9656C4.97191 9.9656 4.91391 9.89985 4.91391 9.81904V9.67248H5.17254ZM5.43114 9.37939H4.65527V9.81904C4.65527 10.0615 4.8293 10.2587 5.04319 10.2587C5.25712 10.2587 5.43111 10.0615 5.43111 9.81904V9.37939H5.43114Z" fill="#FAB446"/>
<path d="M5.04281 8.79317C4.89999 8.79317 4.78418 8.66192 4.78418 8.50005V8.20694C4.78418 8.04507 4.89999 7.91382 5.04281 7.91382C5.18563 7.91382 5.30144 8.04507 5.30144 8.20694V8.50005C5.30144 8.66192 5.18563 8.79317 5.04281 8.79317Z" fill="#FFA0D2"/>
<path d="M4.39671 9.52565C4.61095 9.52565 4.78463 9.32881 4.78463 9.086C4.78463 8.8432 4.61095 8.64636 4.39671 8.64636C4.18247 8.64636 4.00879 8.8432 4.00879 9.086C4.00879 9.32881 4.18247 9.52565 4.39671 9.52565Z" fill="#5064AA"/>
<path d="M4.52621 5.86206H4.26758V6.74138H4.52621V5.86206Z" fill="#FAB446"/>
<path d="M3.62094 7.32756L3.3623 7.03444L3.5138 6.86275C3.74797 6.59736 4.06561 6.44824 4.39681 6.44824C4.72801 6.44824 5.04562 6.59736 5.27982 6.86275L5.43131 7.03444L5.17268 7.32756H3.62094Z" fill="#C8414B"/>
<path d="M4.39689 7.18093C4.46831 7.18093 4.52621 7.11532 4.52621 7.03438C4.52621 6.95343 4.46831 6.88782 4.39689 6.88782C4.32547 6.88782 4.26758 6.95343 4.26758 7.03438C4.26758 7.11532 4.32547 7.18093 4.39689 7.18093Z" fill="#FFD250"/>
<path d="M3.87932 7.18093C3.95074 7.18093 4.00863 7.11532 4.00863 7.03438C4.00863 6.95343 3.95074 6.88782 3.87932 6.88782C3.8079 6.88782 3.75 6.95343 3.75 7.03438C3.75 7.11532 3.8079 7.18093 3.87932 7.18093Z" fill="#FFD250"/>
<path d="M4.9135 7.18093C4.98492 7.18093 5.04281 7.11532 5.04281 7.03438C5.04281 6.95343 4.98492 6.88782 4.9135 6.88782C4.84208 6.88782 4.78418 6.95343 4.78418 7.03438C4.78418 7.11532 4.84208 7.18093 4.9135 7.18093Z" fill="#FFD250"/>
<path d="M3.3625 8.5H2.06934V8.79312H3.3625V8.5Z" fill="#C8414B"/>
<path d="M2.07031 9.67238L2.84615 9.3793V9.08618L2.07031 9.3793V9.67238Z" fill="#C8414B"/>
</svg>
