<svg width="27" height="27" viewBox="0 0 27 27" fill="none" 
    xmlns="http://www.w3.org/2000/svg">
    <g clip-path="url(#clip0)">
        <path d="M15.8878 13.5007L26.5053 2.8833C27.1649 2.22422 27.1649 1.15482 26.5053 0.495736C25.8456 -0.163913 24.7773 -0.163913 24.1177 0.495736L13.5003 11.1131L2.8823 0.495736C2.22266 -0.163913 1.15438 -0.163913 0.494736 0.495736C-0.164912 1.15482 -0.164912 2.22422 0.494736 2.8833L11.1127 13.5007L0.494736 24.1181C-0.164912 24.7772 -0.164912 25.8466 0.494736 26.5057C0.824561 26.835 1.25682 26.9999 1.68852 26.9999C2.12022 26.9999 2.55248 26.835 2.8823 26.5051L13.5003 15.8877L24.1177 26.5051C24.4475 26.835 24.8798 26.9999 25.3115 26.9999C25.7432 26.9999 26.1754 26.835 26.5053 26.5051C27.1649 25.846 27.1649 24.7767 26.5053 24.1176L15.8878 13.5007Z" fill="#4A452A"/>
    </g>
    <defs>
        <clipPath id="clip0">
            <rect width="27" height="27" fill="white"/>
        </clipPath>
    </defs>
</svg>
