<svg width="32" height="32" viewBox="0 0 32 32" fill="none" 
    xmlns="http://www.w3.org/2000/svg">
    <g clip-path="url(#clip0)">
        <path fill-rule="evenodd" clip-rule="evenodd" d="M8.74976 7.875C11.916 7.875 14.6592 9.68604 16 12.3289C17.3408 9.68604 20.0835 7.875 23.2498 7.875C23.531 7.875 23.8088 7.88916 24.0825 7.91724C23.6655 3.82104 20.2058 0.625 15.9998 0.625C11.7937 0.625 8.33398 3.82104 7.91699 7.91724C8.19067 7.88916 8.46851 7.875 8.74976 7.875Z" fill="#77C9FF"/>
        <path fill-rule="evenodd" clip-rule="evenodd" d="M16.0002 12.3289C14.6594 9.68604 11.9163 7.875 8.75 7.875C8.46875 7.875 8.19092 7.88916 7.91724 7.91724C3.82129 8.33423 0.625 11.7939 0.625 16C0.625 20.2061 3.82104 23.6658 7.91724 24.0828C7.88916 23.8091 7.875 23.5312 7.875 23.25C7.875 18.7627 11.5127 15.125 16 15.125C16.2812 15.125 16.5591 15.1394 16.8328 15.1672C16.7297 14.1545 16.4407 13.1968 16.0002 12.3289Z" fill="#45E08C"/>
        <path fill-rule="evenodd" clip-rule="evenodd" d="M16 15.125C11.5127 15.125 7.875 18.7627 7.875 23.25C7.875 23.5312 7.88916 23.8091 7.91724 24.0828C8.33423 28.179 11.7939 31.375 16 31.375C20.2061 31.375 23.6658 28.179 24.0828 24.0828C24.1106 23.8091 24.125 23.5312 24.125 23.25C24.125 20.8943 23.1223 18.7727 21.5205 17.2886C20.2625 16.123 18.6348 15.3506 16.8328 15.1672C16.5591 15.1394 16.2812 15.125 16 15.125Z" fill="#FFEF75"/>
        <path fill-rule="evenodd" clip-rule="evenodd" d="M16 12.3289C16.4404 13.1968 16.7295 14.1545 16.8325 15.1672C18.6345 15.3506 20.2622 16.123 21.5205 17.2886C23.1221 18.7727 24.1248 20.8943 24.1248 23.25C24.1248 23.5312 24.1106 23.8091 24.0825 24.0828C28.1787 23.6658 31.3748 20.2061 31.3748 16C31.3748 11.7939 28.1787 8.33423 24.0825 7.91724C23.8088 7.8894 23.531 7.875 23.2498 7.875C20.0835 7.875 17.3408 9.68604 16 12.3289Z" fill="#FF6977"/>
        <path d="M14.1252 23.25C14.1252 22.9048 13.8452 22.625 13.5002 22.625H13.4998C13.1545 22.625 12.875 22.9048 12.875 23.25C12.875 23.5952 13.155 23.875 13.5002 23.875C13.8455 23.875 14.1252 23.5952 14.1252 23.25Z" fill="black"/>
        <path d="M18.5002 22.625H18.4998C18.1548 22.625 17.875 22.9048 17.875 23.25C17.875 23.5952 18.155 23.875 18.5002 23.875C18.8455 23.875 19.1252 23.5952 19.1252 23.25C19.1252 22.9048 18.8455 22.625 18.5002 22.625Z" fill="black"/>
        <path d="M18.5084 25.8159C18.2093 25.6436 17.8272 25.7459 17.6546 26.0447C17.3145 26.634 16.6805 27 16.0003 27C15.3202 27 14.6861 26.634 14.346 26.0447C14.1734 25.7459 13.7913 25.6436 13.4923 25.8159C13.1934 25.9885 13.0909 26.3709 13.2635 26.6697C13.8263 27.6445 14.8748 28.25 16.0003 28.25C17.1258 28.25 18.1744 27.6443 18.7371 26.6697C18.9097 26.3709 18.8072 25.9885 18.5084 25.8159Z" fill="black"/>
        <path d="M24.6396 7.36084C24.3274 5.40723 23.3604 3.61548 21.8826 2.27246C20.2698 0.807129 18.1807 0 16 0C13.8193 0 11.7302 0.807129 10.1174 2.27246C8.63989 3.61499 7.67285 5.40649 7.3606 7.35938C6.57642 7.48438 5.81519 7.71582 5.08569 8.05249C4.77246 8.19727 4.63574 8.5686 4.78052 8.88208C4.92505 9.19556 5.29639 9.33203 5.60986 9.1875C6.59766 8.73145 7.65405 8.5 8.75 8.5C12.2778 8.5 15.4048 11.0359 16.1008 14.5012C16.0671 14.5007 16.0337 14.5005 16 14.5C13.3228 14.5 10.9229 15.709 9.31665 17.6094H6.87524C6.53003 17.6094 6.25024 17.8892 6.25024 18.2344C6.25024 18.5793 6.53003 18.8594 6.87524 18.8594H8.43384C7.68164 20.1506 7.25 21.6506 7.25 23.25C7.25 23.2834 7.25024 23.3171 7.25049 23.3508C3.78223 22.6541 1.25 19.6138 1.25 16C1.25 14.9041 1.48145 13.8474 1.93774 12.8594C2.08228 12.5459 1.9458 12.1748 1.63232 12.03C1.31909 11.8853 0.94751 12.022 0.802734 12.3354C0.270019 13.4888 0 14.7219 0 16C0 18.1807 0.807129 20.2698 2.27246 21.8826C3.61548 23.3606 5.40723 24.3274 7.36084 24.6394C8.02856 28.8062 11.6482 32 16 32C20.3518 32 23.9714 28.8062 24.6392 24.6394C26.5928 24.3274 28.3845 23.3604 29.7275 21.8826C31.1929 20.2698 32 18.1807 32 16C32 11.6479 28.8062 8.02856 24.6396 7.36084ZM14.6326 9.52246C13.0198 8.05713 10.9307 7.25 8.75 7.25C8.71631 7.25 8.68286 7.25098 8.64917 7.25122C9.34595 3.78271 12.386 1.25 16 1.25C19.614 1.25 22.6541 3.78271 23.3508 7.25122C23.3171 7.25098 23.2837 7.25 23.25 7.25C20.3049 7.25 17.616 8.70142 16 11.0999C15.6118 10.5266 15.1543 9.99658 14.6326 9.52246ZM16 30.75C12.0122 30.75 8.74194 27.6216 8.51318 23.6902C8.50488 23.5435 8.5 23.3962 8.5 23.25C8.5 19.1145 11.8645 15.75 16 15.75C20.1355 15.75 23.5 19.1145 23.5 23.25C23.5 23.3584 23.4971 23.467 23.4924 23.5757C23.3213 27.5608 20.0264 30.75 16 30.75ZM24.7495 23.3508C24.7498 23.3171 24.75 23.2837 24.75 23.25C24.75 20.9978 23.8943 18.9417 22.4915 17.3894C22.7285 17.2866 22.9858 17.2322 23.25 17.2322C23.9302 17.2322 24.5642 17.5981 24.9043 18.1873C25.02 18.3877 25.23 18.5 25.446 18.5C25.5522 18.5 25.6597 18.4729 25.7581 18.416C26.0569 18.2434 26.1594 17.8613 25.9868 17.5623C25.4241 16.5876 24.3755 15.9822 23.25 15.9822C22.6379 15.9822 22.0481 16.158 21.5417 16.4839C20.3716 15.5237 18.9487 14.8606 17.3894 14.6108C17.2637 13.8223 17.0308 13.0603 16.7009 12.3435C18.0286 9.96509 20.5105 8.5 23.25 8.5C27.3855 8.5 30.75 11.8645 30.75 16C30.75 19.6138 28.2178 22.6541 24.7495 23.3508Z" fill="black"/>
        <path d="M20.7502 12.875H20.7498C20.4045 12.875 20.125 13.1548 20.125 13.5C20.125 13.845 20.405 14.125 20.7502 14.125C21.0955 14.125 21.3752 13.845 21.3752 13.5C21.3752 13.1548 21.0952 12.875 20.7502 12.875Z" fill="black"/>
        <path d="M25.7502 12.875H25.75C25.4048 12.875 25.125 13.1548 25.125 13.5C25.125 13.845 25.405 14.125 25.7502 14.125C26.0955 14.125 26.3752 13.845 26.3752 13.5C26.3752 13.1548 26.0955 12.875 25.7502 12.875Z" fill="black"/>
        <path d="M13.5002 5.625H13.4998C13.1545 5.625 12.875 5.90479 12.875 6.25C12.875 6.59497 13.155 6.875 13.5002 6.875C13.8455 6.875 14.1252 6.59497 14.1252 6.25C14.1252 5.90479 13.8452 5.625 13.5002 5.625Z" fill="black"/>
        <path d="M18.5002 6.875C18.8455 6.875 19.1252 6.59497 19.1252 6.25C19.1252 5.90479 18.8455 5.625 18.5002 5.625H18.4998C18.1548 5.625 17.875 5.90479 17.875 6.25C17.875 6.59497 18.155 6.875 18.5002 6.875Z" fill="black"/>
        <path d="M6.875 14.125C7.21997 14.125 7.5 13.845 7.5 13.5C7.5 13.1548 7.21997 12.875 6.875 12.875H5.625C5.27979 12.875 5 13.1548 5 13.5C5 13.845 5.27979 14.125 5.625 14.125H6.875Z" fill="black"/>
        <path d="M11.875 14.125C12.2202 14.125 12.5 13.845 12.5 13.5C12.5 13.1548 12.2202 12.875 11.875 12.875H10.625C10.2798 12.875 10 13.1548 10 13.5C10 13.845 10.2798 14.125 10.625 14.125H11.875Z" fill="black"/>
        <path d="M3.00526 10.8799C3.14637 10.8799 3.28822 10.8322 3.40492 10.7348L3.40541 10.7346C3.67054 10.5136 3.70619 10.1196 3.48524 9.85446C3.26429 9.58933 2.86976 9.55368 2.60487 9.77463C2.33949 9.99558 2.30385 10.3899 2.52479 10.6548C2.64833 10.8032 2.82606 10.8799 3.00526 10.8799Z" fill="black"/>
    </g>
    <defs>
        <clipPath id="clip0">
            <rect width="32" height="32" fill="white"/>
        </clipPath>
    </defs>
</svg>
