<svg width="33" height="35" viewBox="0 0 33 35" fill="none" 
    xmlns="http://www.w3.org/2000/svg">
    <g filter="url(#filter0_d)">
        <path d="M16.5 0C9.60769 0 4 5.60721 4 12.5C4 19.3928 9.60769 25 16.5 25C23.3923 25 29 19.3928 29 12.5C29 5.60721 23.3923 0 16.5 0ZM22.5096 13.4615H17.4615V18.75C17.4615 19.2808 17.0308 19.7115 16.5 19.7115C15.9692 19.7115 15.5385 19.2808 15.5385 18.75V13.4615H10.4904C9.95962 13.4615 9.52885 13.0308 9.52885 12.5C9.52885 11.9692 9.95962 11.5385 10.4904 11.5385H15.5385V6.73077C15.5385 6.2 15.9692 5.76923 16.5 5.76923C17.0308 5.76923 17.4615 6.2 17.4615 6.73077V11.5385H22.5096C23.0404 11.5385 23.4712 11.9692 23.4712 12.5C23.4712 13.0308 23.0404 13.4615 22.5096 13.4615Z" fill="#EE5B5B"/>
    </g>
    <defs>
        <filter id="filter0_d" x="0" y="0" width="33" height="35" filterUnits="userSpaceOnUse" color-interpolation-filters="sRGB">
            <feFlood flood-opacity="0" result="BackgroundImageFix"/>
            <feColorMatrix in="SourceAlpha" type="matrix" values="0 0 0 0 0 0 0 0 0 0 0 0 0 0 0 0 0 0 127 0"/>
            <feOffset dy="6"/>
            <feGaussianBlur stdDeviation="2"/>
            <feColorMatrix type="matrix" values="0 0 0 0 0 0 0 0 0 0 0 0 0 0 0 0 0 0 0.25 0"/>
            <feBlend mode="normal" in2="BackgroundImageFix" result="effect1_dropShadow"/>
            <feBlend mode="normal" in="SourceGraphic" in2="effect1_dropShadow" result="shape"/>
        </filter>
    </defs>
</svg>
