<svg width="32" height="32" viewBox="0 0 32 32" fill="none" 
    xmlns="http://www.w3.org/2000/svg">
    <path d="M1.91738 20.6959V19.1919C1.79785 15.8855 9.54547 13.0513 11.2253 11.6341C13.5434 10.255 13.481 5.99945 14.2475 4.33429C17.1884 -2.40653 28.6407 0.512907 28.3351 7.08228V16.8733L19.0125 26.6179L9.95105 20.577L5.42035 22.5906L1.91738 20.6959Z" fill="white"/>
    <path d="M19.013 27.1216C18.9163 27.1216 18.8192 27.0939 18.7339 27.037L9.90312 21.1497L5.62565 23.0509C5.48303 23.1141 5.3191 23.1079 5.18165 23.0336L1.67869 21.1387C1.51609 21.0508 1.41477 20.8807 1.41477 20.696V19.192C1.31787 16.5204 5.43429 14.3135 8.44001 12.7021C9.52888 12.1183 10.4692 11.6142 10.9016 11.2495C10.9226 11.2317 10.9452 11.2158 10.9688 11.2016C12.3679 10.3693 12.8175 8.16769 13.179 6.39869C13.3652 5.48687 13.5261 4.69953 13.791 4.12405C15.4189 0.392268 19.4496 -0.513209 22.7202 0.248987C27.1195 1.27422 28.963 4.43155 28.8386 7.1061L28.8391 16.8737C28.8391 17.0033 28.7891 17.128 28.6994 17.2216L19.3768 26.9663C19.279 27.0685 19.1465 27.1216 19.013 27.1216ZM9.95172 20.0738C10.0496 20.0738 10.1471 20.1023 10.231 20.1583L18.9411 25.9651L27.8323 16.6713V7.0825C27.9787 3.92576 25.2553 1.8733 22.4917 1.22931C19.8373 0.610617 16.2061 1.1055 14.7096 4.53575C14.4891 5.01485 14.3318 5.78494 14.1653 6.60023C13.7669 8.55048 13.2717 10.9745 11.5188 12.0456C10.9995 12.4723 10.0772 12.9667 8.91564 13.5893C6.2998 14.9918 2.34649 17.1112 2.42112 19.1738L2.42134 20.3959L5.44284 22.0302L9.74738 20.1171C9.81264 20.0881 9.8824 20.0738 9.95172 20.0738ZM2.42142 20.696H2.42643H2.42142Z" fill="#602F75"/>
    <path d="M7.43402 10.5089C8.82414 10.5089 9.95106 9.38203 9.95106 7.99192C9.95106 6.6018 8.82414 5.47488 7.43402 5.47488C6.04391 5.47488 4.91699 6.6018 4.91699 7.99192C4.91699 9.38203 6.04391 10.5089 7.43402 10.5089Z" fill="#00E7FF"/>
    <path d="M7.43453 11.0122C5.769 11.0122 4.41406 9.65728 4.41406 7.99175C4.41406 6.32622 5.769 4.97128 7.43453 4.97128C9.10007 4.97128 10.455 6.32622 10.455 7.99175C10.455 9.65728 9.10007 11.0122 7.43453 11.0122ZM7.43453 5.97815C6.32413 5.97815 5.42086 6.88142 5.42086 7.99182C5.42086 9.10223 6.32413 10.0055 7.43453 10.0055C8.54494 10.0055 9.4482 9.10223 9.4482 7.99182C9.4482 6.88142 8.54494 5.97815 7.43453 5.97815Z" fill="#00E7FF"/>
    <path d="M11.2324 16.0538C11.8555 15.3842 12.844 14.7883 14.1035 14.3933C16.9902 13.49 20.2091 13.98 21.2938 15.4876C22.3784 16.9951 20.9174 18.9522 18.0325 19.8537C17.5829 19.9947 16.6755 20.1422 16.1575 20.1766" fill="#EAEAEA"/>
    <path d="M16.1576 20.6801C15.8947 20.6801 15.6734 20.4761 15.6559 20.21C15.6375 19.9326 15.8475 19.6927 16.125 19.6743C16.5932 19.6432 17.4629 19.5051 17.8825 19.3734C19.534 18.8573 20.7565 17.9467 21.0736 16.9967C21.2179 16.564 21.1548 16.1552 20.8859 15.7815C19.9362 14.4618 16.8994 14.046 14.2544 14.8737C13.1293 15.2265 12.1871 15.7674 11.6014 16.3966C11.412 16.6002 11.0935 16.6116 10.89 16.4223C10.6864 16.2329 10.675 15.9144 10.8643 15.7108C11.5772 14.9448 12.6454 14.3231 13.9533 13.9129C17.0787 12.935 20.4826 13.4975 21.7029 15.1935C22.1648 15.8355 22.2773 16.5693 22.0283 17.3155C21.6043 18.5857 20.1669 19.7142 18.1831 20.3342C17.6769 20.493 16.727 20.6434 16.1913 20.6789C16.1801 20.6798 16.1688 20.6801 16.1576 20.6801Z" fill="#602F75"/>
    <path d="M1.91211 20.3142C1.91211 21.946 1.91211 23.3037 1.91211 24.9349C2.33561 28.3133 4.03521 29.9902 7.1865 30.3893C7.01682 25.753 8.00769 23.6651 10.566 23.7234C13.5352 23.8597 14.5349 27.0074 14.6575 31.4966C23.0692 31.4966 25.9429 27.6087 28.327 23.9816C28.327 21.1896 28.327 18.3987 28.327 15.6067C26.6665 18.3268 23.7199 20.97 20.7257 21.8003C18.7835 22.0299 17.7677 22.6359 14.18 17.6684C12.3256 15.4044 8.90446 15.4942 7.1983 17.4966C5.34177 19.387 4.3641 20.3706 1.91211 20.3142Z" fill="#EA3457"/>
    <path d="M14.6572 32C14.3845 32 14.1614 31.7829 14.1539 31.5103C14.0212 26.6478 12.8736 24.3333 10.5425 24.2263C9.78388 24.2086 9.2008 24.4114 8.77303 24.8451C7.93864 25.6911 7.58394 27.4987 7.68902 30.371C7.6944 30.5186 7.63467 30.6612 7.52568 30.7608C7.41669 30.8605 7.26921 30.9074 7.12268 30.8887C3.67569 30.4522 1.86113 28.5802 1.41211 24.9974C1.40946 24.9766 1.4082 24.9557 1.4082 24.9347V20.3141C1.4082 20.1786 1.46285 20.0488 1.55974 19.954C1.65664 19.8594 1.78731 19.808 1.92322 19.8108C4.1688 19.8625 5.00533 19.0105 6.83856 17.1437C7.74271 16.0807 9.13761 15.4657 10.6467 15.4792C12.1781 15.4942 13.6077 16.1758 14.5689 17.3494C17.7165 21.7058 18.6565 21.5757 20.2143 21.3597C20.3479 21.3412 20.485 21.3222 20.6268 21.305C23.2536 20.5622 26.1709 18.1718 27.8968 15.3442C28.0144 15.1517 28.2454 15.0608 28.4628 15.1218C28.6799 15.1829 28.8299 15.3809 28.8299 15.6064V23.9813C28.8299 24.0796 28.801 24.1758 28.7472 24.2578C26.5997 27.5254 23.6584 32 14.6572 32ZM10.465 23.2189C10.5021 23.2189 10.5394 23.2192 10.5772 23.2201C14.306 23.3911 15.0046 27.5979 15.1437 30.9888C22.5171 30.8556 25.2804 27.6782 27.8234 23.8305V17.2262C25.9377 19.6814 23.3304 21.6002 20.8599 22.2853C20.8351 22.2922 20.8099 22.2971 20.7845 22.3001C20.6355 22.3178 20.4922 22.3377 20.3527 22.3569C18.3743 22.6312 17.0933 22.5622 13.7716 17.963C13.0186 17.0451 11.8694 16.498 10.6372 16.4859C9.42881 16.4727 8.31524 16.9615 7.58114 17.8228C5.8266 19.6111 4.73381 20.7237 2.41522 20.8137V24.9029C2.78231 27.7687 4.10303 29.2999 6.66718 29.7973C6.625 26.9439 7.07055 25.1374 8.05618 24.138C8.65828 23.5279 9.46827 23.2189 10.465 23.2189Z" fill="#602F75"/>
    <path d="M27.5717 19.067C28.9618 19.067 30.0888 17.9401 30.0888 16.55C30.0888 15.1599 28.9618 14.033 27.5717 14.033C26.1816 14.033 25.0547 15.1599 25.0547 16.55C25.0547 17.9401 26.1816 19.067 27.5717 19.067Z" fill="#FFE600"/>
    <path d="M27.5712 19.5703C25.9057 19.5703 24.5508 18.2154 24.5508 16.5498C24.5508 14.8843 25.9057 13.5294 27.5712 13.5294C29.2368 13.5294 30.5917 14.8843 30.5917 16.5498C30.5917 18.2154 29.2368 19.5703 27.5712 19.5703ZM27.5712 14.5362C26.4608 14.5362 25.5576 15.4394 25.5576 16.5498C25.5576 17.6602 26.4608 18.5635 27.5712 18.5635C28.6817 18.5635 29.5849 17.6602 29.5849 16.5498C29.5849 15.4394 28.6817 14.5362 27.5712 14.5362Z" fill="#FFE600"/>
    <path d="M16.9805 9.81616C19.5507 9.20602 21.9836 9.87331 23.7231 11.209L16.9805 9.81616Z" fill="white"/>
    <path d="M23.4167 11.6082C21.645 10.2478 19.3413 9.77303 17.0968 10.3059L16.8643 9.32623C19.4048 8.72302 22.0165 9.26369 24.0298 10.8095L23.4167 11.6082Z" fill="#602F75"/>
</svg>
