<svg width="35" height="35" viewBox="0 0 35 35" fill="none" 
    xmlns="http://www.w3.org/2000/svg">
    <g clip-path="url(#clip0)">
        <path d="M35 17.5C35 21.3972 33.7257 24.9971 31.5714 27.9057C30.7793 28.975 29.8679 29.9515 28.8572 30.8143C25.8007 33.4243 21.835 35 17.5 35C14.9893 35 12.6029 34.4714 10.445 33.5193C9.51282 33.1086 8.62354 32.6186 7.78565 32.0578C7.2128 31.6757 6.66497 31.2599 6.14277 30.8142C5.13208 29.9514 4.22064 28.9749 3.4285 27.9057C1.27429 24.9971 0 21.3972 0 17.5C0 13.6028 1.27429 10.0029 3.42856 7.09427C4.7857 5.2621 6.49216 3.70426 8.44929 2.51925C11.09 0.91998 14.1872 0 17.5 0C17.5228 0 17.5457 0 17.5686 0.000683594C20.8557 0.0128516 23.9286 0.930713 26.5507 2.51925C28.5078 3.70426 30.2143 5.2621 31.5714 7.09427C33.7257 10.0028 35 13.6028 35 17.5Z" fill="#EE5B5B"/>
        <path d="M32.582 15.0811C32.582 18.4395 31.4839 21.542 29.6274 24.0485C28.9447 24.97 28.1593 25.8114 27.2883 26.5551C24.6544 28.8043 21.2368 30.1622 17.501 30.1622C15.3374 30.1622 13.2808 29.7067 11.4211 28.8861C10.6179 28.5322 9.85147 28.1099 9.12939 27.6267C8.63577 27.2974 8.16361 26.9391 7.7136 26.555C6.84264 25.8115 6.05719 24.97 5.37455 24.0484C3.51805 21.5419 2.41992 18.4395 2.41992 15.081C2.41992 11.7226 3.51798 8.62019 5.37448 6.11365C6.54404 4.53476 8.01466 3.19225 9.70122 2.17103C11.9769 0.792832 14.6459 0 17.5009 0C17.5206 0 17.5403 0 17.56 0.000615234C20.3928 0.0110742 23.0409 0.802061 25.3006 2.17103C26.9872 3.19225 28.4578 4.53476 29.6273 6.11365C31.4838 8.62019 32.582 11.7227 32.582 15.0811Z" fill="#EE5B5B"/>
        <path d="M31.5707 5.12002V27.9057C30.7785 28.975 29.8671 29.9514 28.8564 30.8143C25.8 33.4244 21.8342 35 17.4992 35C14.9885 35 12.6021 34.4715 10.4442 33.5193C9.51206 33.1086 8.62277 32.6186 7.78489 32.0579C7.21204 31.6757 6.66421 31.26 6.14201 30.8143C5.13132 29.9514 4.21988 28.975 3.42773 27.9057V5.12002C3.42773 3.68358 4.59203 2.51929 6.02847 2.51929H28.9699C30.4064 2.51936 31.5707 3.68358 31.5707 5.12002Z" fill="#324A5E"/>
        <path d="M28.857 10.0157V30.8143C25.8005 33.4243 21.8348 35 17.4998 35C14.9891 35 12.6027 34.4714 10.4448 33.5192C9.51263 33.1085 8.62334 32.6185 7.78546 32.0578C7.21261 31.6757 6.66478 31.2599 6.14258 30.8142V10.0157C6.14258 9.11003 6.87614 8.37646 7.78115 8.37646H27.2176C28.1226 8.3764 28.857 9.10996 28.857 10.0157Z" fill="#F0F0F0"/>
        <path d="M24.4656 3.21954V7.82095C24.4656 8.68098 23.7692 9.37735 22.9092 9.37735H12.0935C11.2335 9.37735 10.5371 8.68091 10.5371 7.82095V3.21954C10.5371 2.35951 11.2336 1.66313 12.0935 1.66313H14.8164C15.3078 0.678145 16.3257 0.000976562 17.5014 0.000976562C17.6843 0.000976562 17.8636 0.0173828 18.0372 0.0488281C18.86 0.196689 19.5657 0.680947 20.0079 1.35313C20.0136 1.36167 20.0186 1.36953 20.0236 1.37814C20.0657 1.44315 20.1058 1.51028 20.1422 1.57885C20.1586 1.60886 20.1737 1.63743 20.1865 1.66313H22.9094C23.7692 1.66313 24.4656 2.35958 24.4656 3.21954Z" fill="#F2AE5A"/>
        <path d="M24.4645 3.21954V7.82095C24.4645 8.68098 23.7681 9.37735 22.9081 9.37735H13.1638C12.3038 9.37735 11.6074 8.68091 11.6074 7.82095V3.21954C11.6074 2.35951 12.3039 1.66313 13.1638 1.66313H14.8153C15.3067 0.678145 16.3246 0.000976562 17.5003 0.000976562C17.6831 0.000976562 17.8624 0.0173828 18.036 0.0488281C18.8588 0.196689 19.5646 0.680947 20.0067 1.35313C20.0125 1.36167 20.0175 1.36953 20.0225 1.37814C20.0682 1.4517 20.1082 1.51958 20.1411 1.57885C20.1575 1.60886 20.1725 1.63743 20.1854 1.66313H22.9083C23.7681 1.66313 24.4645 2.35958 24.4645 3.21954Z" fill="#F9DF73"/>
        <path d="M17.4986 3.48354C18.0706 3.48354 18.5343 3.01983 18.5343 2.44782C18.5343 1.87581 18.0706 1.41211 17.4986 1.41211C16.9266 1.41211 16.4629 1.87581 16.4629 2.44782C16.4629 3.01983 16.9266 3.48354 17.4986 3.48354Z" fill="#324A5E"/>
        <path d="M21.3568 7.09076H13.6425C13.2284 7.09076 12.8926 6.75498 12.8926 6.34079C12.8926 5.9266 13.2284 5.59082 13.6425 5.59082H21.3568C21.771 5.59082 22.1068 5.9266 22.1068 6.34079C22.1069 6.75498 21.7711 7.09076 21.3568 7.09076Z" fill="#324A5E"/>
        <path d="M12.9995 18.0907H8.49944C8.10501 18.0907 7.78516 17.7709 7.78516 17.3764V12.8764C7.78516 12.4819 8.10501 12.1621 8.49944 12.1621H12.9995C13.3939 12.1621 13.7138 12.4819 13.7138 12.8764V17.3764C13.7138 17.7709 13.3939 18.0907 12.9995 18.0907ZM9.2138 16.6621H12.2853V13.5907H9.2138V16.6621Z" fill="#00D7A3"/>
        <path d="M20.2143 14.4479H15.7143C15.3199 14.4479 15 14.1281 15 13.7336C15 13.3391 15.3199 13.0193 15.7143 13.0193H20.2143C20.6088 13.0193 20.9286 13.3391 20.9286 13.7336C20.9286 14.1281 20.6088 14.4479 20.2143 14.4479Z" fill="#324A5E"/>
        <path d="M25.7857 17.2335H15.7143C15.3199 17.2335 15 16.9137 15 16.5192C15 16.1247 15.3199 15.8049 15.7143 15.8049H25.7857C26.1802 15.8049 26.5 16.1247 26.5 16.5192C26.5 16.9137 26.1801 17.2335 25.7857 17.2335Z" fill="#324A5E"/>
        <path d="M12.9995 25.8051H8.49944C8.10501 25.8051 7.78516 25.4853 7.78516 25.0908V20.5908C7.78516 20.1963 8.10501 19.8765 8.49944 19.8765H12.9995C13.3939 19.8765 13.7138 20.1963 13.7138 20.5908V25.0908C13.7138 25.4853 13.3939 25.8051 12.9995 25.8051ZM9.2138 24.3765H12.2853V21.305H9.2138V24.3765Z" fill="#00D7A3"/>
        <path d="M20.2143 22.1622H15.7143C15.3199 22.1622 15 21.8424 15 21.4479C15 21.0534 15.3199 20.7336 15.7143 20.7336H20.2143C20.6088 20.7336 20.9286 21.0534 20.9286 21.4479C20.9286 21.8424 20.6088 22.1622 20.2143 22.1622Z" fill="#324A5E"/>
        <path d="M25.7857 24.9479H15.7143C15.3199 24.9479 15 24.6281 15 24.2336C15 23.8391 15.3199 23.5193 15.7143 23.5193H25.7857C26.1802 23.5193 26.5 23.8391 26.5 24.2336C26.4999 24.6281 26.1801 24.9479 25.7857 24.9479Z" fill="#324A5E"/>
        <path d="M12.9995 27.5908H8.49944C8.10515 27.5908 7.78516 27.9108 7.78516 28.3051V32.058C8.62304 32.6187 9.51233 33.1087 10.4445 33.5194H12.9995C13.3938 33.5194 13.7138 33.1994 13.7138 32.8051V28.3051C13.7138 27.9108 13.3938 27.5908 12.9995 27.5908ZM12.2852 32.0908H9.21373V29.0193H12.2852V32.0908Z" fill="#00D7A3"/>
        <path d="M20.2143 29.8763H15.7143C15.3199 29.8763 15 29.5565 15 29.162C15 28.7675 15.3199 28.4478 15.7143 28.4478H20.2143C20.6088 28.4478 20.9286 28.7675 20.9286 29.162C20.9286 29.5565 20.6088 29.8763 20.2143 29.8763Z" fill="#324A5E"/>
        <path d="M25.7857 32.662H15.7143C15.3199 32.662 15 32.3422 15 31.9477C15 31.5532 15.3199 31.2334 15.7143 31.2334H25.7857C26.1802 31.2334 26.5 31.5532 26.5 31.9477C26.4999 32.3422 26.1801 32.662 25.7857 32.662Z" fill="#324A5E"/>
        <path d="M10.7128 25.162C10.4752 25.162 10.2516 25.0435 10.1187 24.8439L7.83294 21.4153C7.61412 21.0872 7.70278 20.6436 8.03104 20.4248C8.3593 20.206 8.80275 20.2947 9.02157 20.623L10.6075 23.0018L12.6389 18.7134C12.8077 18.3569 13.2336 18.2047 13.5902 18.3736C13.9467 18.5425 14.0988 18.9684 13.9299 19.3249L11.3585 24.7534C11.2484 24.986 11.0216 25.1413 10.7649 25.1601C10.7474 25.1614 10.73 25.162 10.7128 25.162Z" fill="#EE5B5B"/>
    </g>
    <defs>
        <clipPath id="clip0">
            <rect width="35" height="35" fill="white"/>
        </clipPath>
    </defs>
</svg>
