<svg width="34" height="35" viewBox="0 0 34 35" fill="none" 
    xmlns="http://www.w3.org/2000/svg">
    <g clip-path="url(#clip0)">
        <path d="M17.2301 33.1891C23.8226 33.2832 27.5004 30.5454 29.5451 27.644C31.6572 24.6472 32.3378 20.8353 31.683 17.1904C29.313 4.0075 17.2301 4.11914 17.2301 4.11914C17.2301 4.11914 5.14777 4.0075 2.77774 17.191C2.12236 20.8359 2.80353 24.6472 4.91563 27.6446C6.95974 30.5447 10.6376 33.2832 17.2301 33.1891Z" fill="#FDC794"/>
        <path d="M2.63734 18.1783C2.37179 17.9194 2.05993 17.7637 1.72345 17.7637C0.771448 17.7637 0 18.9591 0 20.434C0 21.9082 0.771448 23.1036 1.72286 23.1036C2.12559 23.1036 2.49138 22.8803 2.78448 22.5219C2.51893 21.102 2.47262 19.6344 2.63734 18.1783Z" fill="#F9A671"/>
        <path d="M33.8963 15.8695C33.5663 14.4351 32.548 13.4563 31.6224 13.6838C31.3346 13.7544 31.096 13.9433 30.9043 14.1997C31.2197 15.114 31.487 16.103 31.6828 17.191C31.7736 17.6961 31.8358 18.2042 31.8751 18.7129C32.1799 18.8843 32.5035 18.9555 32.8177 18.8783C33.7433 18.6508 34.2263 17.3039 33.8963 15.8695Z" fill="#F9A671"/>
        <path d="M8.14825 10.2574C7.99818 10.2574 7.84811 10.1982 7.7338 10.0806L4.80276 7.06333C4.57356 6.82738 4.57356 6.44601 4.80276 6.21006C5.03197 5.97411 5.40245 5.97411 5.63166 6.21006L8.5627 9.2273C8.7919 9.46325 8.7919 9.84463 8.5627 10.0806C8.44839 10.1989 8.29832 10.2574 8.14825 10.2574Z" fill="#5E5F62"/>
        <path d="M9.90743 8.44708C9.69229 8.44708 9.48536 8.32518 9.38219 8.11337L7.62357 4.49268C7.47878 4.19458 7.59602 3.83191 7.8856 3.68285C8.17578 3.53441 8.5275 3.65449 8.67229 3.9526L10.4309 7.57329C10.5757 7.87139 10.4585 8.23406 10.1689 8.38311C10.0851 8.42656 9.99536 8.44708 9.90743 8.44708Z" fill="#5E5F62"/>
        <path d="M12.252 7.24014C12.0063 7.24014 11.7777 7.08023 11.6956 6.82738L10.5232 3.20669C10.4212 2.89049 10.5871 2.54893 10.8943 2.44393C11.2021 2.33833 11.5333 2.50911 11.6359 2.82531L12.8083 6.446C12.9109 6.76221 12.745 7.10436 12.4378 7.20936C12.3762 7.23049 12.3135 7.24014 12.252 7.24014Z" fill="#5E5F62"/>
        <path d="M15.1825 6.63673C14.9011 6.63673 14.6525 6.42733 14.6051 6.13224L14.0188 2.51155C13.9655 2.18328 14.1812 1.8719 14.5007 1.81759C14.8208 1.76026 15.1221 1.98535 15.1754 2.31362L15.7616 5.93431C15.815 6.26259 15.5993 6.57397 15.2798 6.62828C15.2469 6.63431 15.2147 6.63673 15.1825 6.63673Z" fill="#5E5F62"/>
        <path d="M17.5276 6.6367C17.204 6.6367 16.9414 6.36696 16.9414 6.03325V2.41256C16.9414 2.07885 17.204 1.80911 17.5276 1.80911C17.8512 1.80911 18.1138 2.07885 18.1138 2.41256V6.03325C18.1138 6.36696 17.8518 6.6367 17.5276 6.6367Z" fill="#5E5F62"/>
        <path d="M19.8722 6.63672C19.8112 6.63672 19.7485 6.62646 19.687 6.60534C19.3798 6.50034 19.2139 6.15878 19.3165 5.84197L20.4889 2.22128C20.5915 1.90568 20.9215 1.7337 21.2304 1.83991C21.5376 1.94491 21.7035 2.28646 21.6009 2.60327L20.4285 6.22396C20.3464 6.47741 20.1178 6.63672 19.8722 6.63672Z" fill="#5E5F62"/>
        <path d="M22.2169 7.24017C22.156 7.24017 22.0932 7.22991 22.0317 7.20879C21.7245 7.10379 21.5586 6.76224 21.6612 6.44543L22.8336 2.82474C22.9356 2.50913 23.2674 2.33775 23.5752 2.44336C23.8823 2.54836 24.0482 2.88991 23.9457 3.20672L22.7732 6.82741C22.6912 7.08086 22.4626 7.24017 22.2169 7.24017Z" fill="#5E5F62"/>
        <path d="M23.9752 8.44704C23.8872 8.44704 23.7976 8.42652 23.7137 8.38368C23.4241 8.23463 23.3069 7.87195 23.4517 7.57385L25.2103 3.95316C25.3557 3.65506 25.7062 3.53497 25.997 3.68342C26.2866 3.83247 26.4038 4.19514 26.259 4.49325L24.5004 8.11394C24.3978 8.32514 24.1909 8.44704 23.9752 8.44704Z" fill="#5E5F62"/>
        <path d="M9.34635 13.0586C8.99756 13.6204 8.79297 14.2866 8.79297 15.0029C8.79297 17.0027 10.3675 18.6236 12.3102 18.6236C14.0589 18.6236 15.5056 17.3087 15.7776 15.5877L9.37918 13.1926L9.34635 13.0586Z" fill="white"/>
        <path d="M24.034 11.9857L15.8652 15.5894C16.1472 17.9785 18.1204 19.8305 20.5168 19.8305C23.1066 19.8305 25.2064 17.6689 25.2064 15.0029C25.2064 13.8274 24.7973 12.7502 24.1184 11.9126L24.034 11.9857Z" fill="white"/>
        <path d="M15.7773 15.5876L15.8272 15.6063L15.8653 15.5895C15.8424 15.3963 15.8272 15.2014 15.8272 15.0029C15.8272 15.202 15.8072 15.3963 15.7773 15.5876Z" fill="#F9A671"/>
        <path d="M12.3105 11.3822C11.0637 11.3822 9.97099 12.052 9.34668 13.0592L9.37951 13.1926L15.778 15.5876C15.8079 15.3964 15.8278 15.202 15.8278 15.0029C15.8278 13.0031 14.2532 11.3822 12.3105 11.3822Z" fill="#F9A671"/>
        <path d="M24.1185 11.9126C23.2585 10.8512 21.9647 10.1753 20.5168 10.1753C17.9269 10.1753 15.8271 12.3369 15.8271 15.0029C15.8271 15.202 15.8424 15.397 15.8653 15.5895L24.034 11.9857L24.1185 11.9126Z" fill="#F9A671"/>
        <path d="M12.8968 16.8132C13.2205 16.8132 13.483 16.5431 13.483 16.2098C13.483 15.8765 13.2205 15.6064 12.8968 15.6064C12.573 15.6064 12.3105 15.8765 12.3105 16.2098C12.3105 16.5431 12.573 16.8132 12.8968 16.8132Z" fill="#7F5B53"/>
        <path d="M19.0512 17.4167C19.5368 17.4167 19.9305 17.0114 19.9305 16.5115C19.9305 16.0116 19.5368 15.6064 19.0512 15.6064C18.5656 15.6064 18.1719 16.0116 18.1719 16.5115C18.1719 17.0114 18.5656 17.4167 19.0512 17.4167Z" fill="#7F5B53"/>
        <path d="M16.4312 25.9464C16.2547 25.5832 16.3198 25.1451 16.5983 24.8566C17.1071 24.3286 17.9829 23.4651 18.9331 22.7319C18.2121 22.368 17.3679 22.2238 16.4757 22.4126C14.9264 22.7403 13.7042 24.0788 13.4878 25.6924C13.1596 28.1376 15.0225 30.2255 17.3451 30.1736C18.8446 30.1404 20.1765 29.1284 20.7715 27.7109C21.1308 26.854 21.132 26.052 20.9585 25.3201C20.466 25.7425 19.8529 26.2017 19.0879 26.6989C18.157 27.3018 16.9224 26.9584 16.4312 25.9464Z" fill="#8697CB"/>
        <path d="M19.914 22.0524C18.8078 22.7488 17.7714 23.8018 17.1312 24.5169C16.7356 24.9592 16.6875 25.6212 17.0117 26.1214C17.371 26.676 18.0821 26.8613 18.656 26.5517C20.2774 25.6779 21.1784 25.2362 21.8549 24.5024C23.0689 23.1845 21.4188 21.105 19.914 22.0524Z" fill="#7D6599"/>
        <path d="M18.0647 27.306C17.4633 27.306 16.8788 27.0043 16.5242 26.4564C16.0482 25.7214 16.1209 24.7558 16.7 24.1077C17.3923 23.3347 18.4587 22.2606 19.6076 21.537C20.5327 20.9547 21.6664 21.1671 22.364 22.053C23.0563 22.934 23.0223 24.1114 22.2801 24.917C21.6048 25.6501 20.773 26.0961 19.3954 26.8347L18.9282 27.0857C18.6521 27.2348 18.3561 27.306 18.0647 27.306ZM20.705 22.4175C20.552 22.4175 20.3879 22.4615 20.2196 22.5677C19.1856 23.2183 18.2042 24.2097 17.5623 24.926C17.3507 25.1632 17.3249 25.5168 17.4996 25.7871C17.6931 26.0858 18.0723 26.1848 18.3842 26.0176L18.8538 25.7654C20.1657 25.0618 20.8891 24.6744 21.4296 24.0878C21.8376 23.6449 21.6975 23.1241 21.453 22.8139C21.2859 22.6009 21.018 22.4175 20.705 22.4175ZM19.9136 22.0524H19.9195H19.9136Z" fill="#7D6599"/>
    </g>
    <defs>
        <clipPath id="clip0">
            <rect width="34" height="35" fill="white"/>
        </clipPath>
    </defs>
</svg>
